simulation/qsim/ASSIGNMENT.msim.vcd
$comment
	File created using the following command:
		vcd file ASSIGNMENT.msim.vcd -direction
$end
$date
	Mon Oct 07 10:34:55 2019
$end
$version
	ModelSim Version 10.5b
$end
$timescale
	1ps
$end

$scope module ASSIGNMENT_vlg_vec_tst $end
$var reg 1 ! CLK $end
$var reg 4 " INPUT1 [3:0] $end
$var reg 2 # INPUT2 [1:0] $end
$var reg 3 $ S [2:0] $end
$var wire 1 % OA [3] $end
$var wire 1 & OA [2] $end
$var wire 1 ' OA [1] $end
$var wire 1 ( OA [0] $end
$var wire 1 ) OB [3] $end
$var wire 1 * OB [2] $end
$var wire 1 + OB [1] $end
$var wire 1 , OB [0] $end
$var wire 1 - OC [3] $end
$var wire 1 . OC [2] $end
$var wire 1 / OC [1] $end
$var wire 1 0 OC [0] $end
$var wire 1 1 OUTPUT [3] $end
$var wire 1 2 OUTPUT [2] $end
$var wire 1 3 OUTPUT [1] $end
$var wire 1 4 OUTPUT [0] $end

$scope module i1 $end
$var wire 1 5 gnd $end
$var wire 1 6 vcc $end
$var wire 1 7 unknown $end
$var tri1 1 8 devclrn $end
$var tri1 1 9 devpor $end
$var tri1 1 : devoe $end
$var wire 1 ; CLK~combout $end
$var wire 1 < inst10|34~0_combout $end
$var wire 1 = inst10|35~combout $end
$var wire 1 > inst|inst3|6~0 $end
$var wire 1 ? inst|inst3|6~1 $end
$var wire 1 @ inst|inst3|6~2_combout $end
$var wire 1 A inst7|inst3~regout $end
$var wire 1 B inst1|inst3|6~0_combout $end
$var wire 1 C inst|inst2|2~combout $end
$var wire 1 D inst10|33~combout $end
$var wire 1 E inst5|inst~regout $end
$var wire 1 F inst7|inst~regout $end
$var wire 1 G inst|inst|6~0 $end
$var wire 1 H inst|inst|6~1 $end
$var wire 1 I ALU4B|inst2|inst|6~0_combout $end
$var wire 1 J inst6|inst~regout $end
$var wire 1 K inst1|inst|6~0 $end
$var wire 1 L inst1|inst|6~1_combout $end
$var wire 1 M ALU4B|inst|inst|6~4_combout $end
$var wire 1 N inst5|inst1~regout $end
$var wire 1 O inst7|inst1~regout $end
$var wire 1 P inst|inst1|3~0 $end
$var wire 1 Q ALU4B|inst|inst|6~6_combout $end
$var wire 1 R ALU4B|inst|inst|6~5 $end
$var wire 1 S inst6|inst1~regout $end
$var wire 1 T inst1|inst1|6~0 $end
$var wire 1 U inst1|inst1|6~1_combout $end
$var wire 1 V ALU4B|inst|inst10|inst4~0_combout $end
$var wire 1 W ALU4B|inst|inst10|inst4~1_combout $end
$var wire 1 X ALU4B|inst1|inst|6~4_combout $end
$var wire 1 Y inst6|inst2~regout $end
$var wire 1 Z inst5|inst2~regout $end
$var wire 1 [ inst1|inst2|6~0 $end
$var wire 1 \ inst1|inst2|6~1_combout $end
$var wire 1 ] ALU4B|inst1|inst|6~2_combout $end
$var wire 1 ^ ALU4B|inst1|inst|6~3 $end
$var wire 1 _ inst7|inst2~regout $end
$var wire 1 ` inst|inst2|3~0 $end
$var wire 1 a inst|inst2|3~1_combout $end
$var wire 1 b ALU4B|inst1|inst10|inst4~0_combout $end
$var wire 1 c ALU4B|inst3|inst10|inst1~0_combout $end
$var wire 1 d ALU4B|inst3|inst|6~0_combout $end
$var wire 1 e ALU4B|inst3|inst|6~2 $end
$var wire 1 f inst6|inst3~regout $end
$var wire 1 g ALU4B|inst3|inst|6~1_combout $end
$var wire 1 h inst5|inst3~regout $end
$var wire 1 i INPUT1~combout [3] $end
$var wire 1 j INPUT1~combout [2] $end
$var wire 1 k INPUT1~combout [1] $end
$var wire 1 l INPUT1~combout [0] $end
$var wire 1 m S~combout [2] $end
$var wire 1 n S~combout [1] $end
$var wire 1 o S~combout [0] $end
$var wire 1 p INPUT2~combout [1] $end
$var wire 1 q INPUT2~combout [0] $end
$upscope $end
$upscope $end
$enddefinitions $end
#0
$dumpvars
0!
b0 "
b0 #
b0 $
0(
0'
0&
0%
0,
0+
0*
0)
00
0/
0.
0-
04
03
02
01
05
16
x7
18
19
1:
0;
0<
0=
0>
0?
0@
0A
0B
0C
1D
0E
0F
0G
0H
0I
0J
0K
0L
0M
0N
0O
0P
1Q
0R
0S
0T
0U
0V
0W
1X
0Y
0Z
0[
0\
0]
0^
0_
0`
0a
0b
0c
0d
0e
0f
0g
0h
0l
0k
0j
0i
0o
0n
0m
0q
0p
$end
#2000
1!
1;
#4000
0!
0;
#6000
1!
1;
#8000
0!
0;
#10000
1!
1;
#12000
0!
0;
#14000
1!
1;
#16000
0!
0;
#18000
1!
1;
#20000
b1 "
b1 #
b1 $
0!
1o
1q
1l
0;
0D
1<
#22000
1!
1;
#24000
0!
0;
#26000
1!
1;
#28000
0!
0;
#30000
1!
1;
#32000
0!
0;
#34000
1!
1;
#36000
0!
0;
#38000
1!
1;
#40000
b11 "
b11 #
b11 $
b10 "
b10 #
b10 $
0!
0o
1n
0q
1p
0l
1k
0;
1V
0Q
1=
0<
#42000
1!
1;
#44000
0!
0;
#46000
1!
1;
#48000
0!
0;
#50000
1!
1;
#52000
0!
0;
#54000
1!
1;
#56000
0!
0;
#58000
1!
1;
#60000
b11 "
b11 #
b11 $
0!
1o
1q
1l
0;
0V
1Q
0=
1`
1P
1G
#62000
1!
1;
#64000
0!
0;
#66000
1!
1;
#68000
0!
0;
#70000
1!
1;
#72000
0!
0;
#74000
1!
1;
#76000
0!
0;
#78000
1!
1;
#80000
b111 "
b111 $
b101 "
b1 #
b101 $
b100 "
b0 #
b100 $
0!
0q
0p
0o
0n
1m
0l
0k
1j
0;
1D
0X
1C
0`
0P
0G
1^
12
#82000
1!
1;
1Z
1[
1`
1&
1\
1b
1]
1c
0^
1d
02
1e
11
#84000
0!
0;
#86000
1!
1;
1h
0Z
1B
1>
0[
0`
1%
0&
0c
1?
0\
0d
0b
0]
0e
1c
1^
1d
01
12
1e
11
#88000
0!
0;
#90000
1!
1;
1Z
1[
1`
1&
1\
1b
1]
0c
0^
0d
02
0e
01
#92000
0!
0;
#94000
1!
1;
0h
0Z
0B
0>
0[
0`
0%
0&
1c
0?
0\
1d
0b
0]
1e
0c
1^
0d
11
12
0e
01
#96000
0!
0;
#98000
1!
1;
1Z
1[
1`
1&
1\
1b
1]
1c
0^
1d
02
1e
11
#100000
b101 "
b1 #
b101 $
0!
1o
1q
1l
0;
1a
1X
0C
0\
0D
1<
0`
0b
0X
1^
0]
0a
0c
1X
12
0d
0^
0e
02
01
#102000
1!
1;
#104000
0!
0;
#106000
1!
1;
#108000
0!
0;
#110000
1!
1;
#112000
0!
0;
#114000
1!
1;
#116000
0!
0;
#118000
1!
1;
#120000
b111 "
b11 #
b111 $
b110 "
b10 #
b110 $
0!
0o
1n
0q
1p
0l
1k
0;
0X
1V
0Q
1C
1\
1=
0<
0[
1b
1]
0\
1c
1^
0b
0]
0c
0^
12
02
#122000
1!
1;
#124000
0!
0;
#126000
1!
1;
#128000
0!
0;
#130000
1!
1;
#132000
0!
0;
#134000
1!
1;
#136000
0!
0;
#138000
1!
1;
#140000
b111 "
b11 #
b111 $
0!
1o
1q
1l
0;
1X
0V
1Q
0C
0=
1`
1P
1G
#142000
1!
1;
#144000
0!
0;
#146000
1!
1;
#148000
0!
0;
#150000
1!
1;
#152000
0!
0;
#154000
1!
1;
#156000
0!
0;
#158000
1!
1;
#160000
b1111 "
b1011 "
b11 $
b1001 "
b1 #
b1 $
b1000 "
b0 #
b0 $
0!
0q
0p
0o
0n
0m
0l
0k
0j
1i
0;
1D
1[
1@
0P
0G
1\
1d
1]
1e
11
#162000
1!
1;
1h
0Z
1B
1>
0[
0`
1%
0&
1c
1?
0\
0]
#164000
0!
0;
#166000
1!
1;
#168000
0!
0;
#170000
1!
1;
#172000
0!
0;
#174000
1!
1;
#176000
0!
0;
#178000
1!
1;
#180000
b1001 "
b1 #
b1 $
0!
1o
1q
1l
0;
0D
0B
1<
0?
0c
0@
0d
0e
01
#182000
1!
1;
#184000
0!
0;
#186000
1!
1;
#188000
0!
0;
#190000
1!
1;
#192000
0!
0;
#194000
1!
1;
#196000
0!
0;
#198000
1!
1;
#200000
b1011 "
b11 #
b11 $
b1010 "
b10 #
b10 $
0!
0o
1n
0q
1p
0l
1k
0;
1V
0Q
1@
1=
0<
1?
0>
0?
#202000
1!
1;
#204000
0!
0;
#206000
1!
1;
#208000
0!
0;
#210000
1!
1;
#212000
0!
0;
#214000
1!
1;
#216000
0!
0;
#218000
1!
1;
#220000
b1011 "
b11 #
b11 $
0!
1o
1q
1l
0;
0V
1Q
0@
0=
1`
1P
1G
#222000
1!
1;
#224000
0!
0;
#226000
1!
1;
#228000
0!
0;
#230000
1!
1;
#232000
0!
0;
#234000
1!
1;
#236000
0!
0;
#238000
1!
1;
#240000
b1111 "
b111 $
b1101 "
b1 #
b101 $
b1100 "
b0 #
b100 $
0!
0q
0p
0o
0n
1m
0l
0k
1j
0;
1D
1B
0X
1C
1@
0`
0P
0G
1>
1c
1^
1d
1?
0d
1e
12
0e
11
01
#242000
1!
1;
0h
1Z
0B
0>
1[
1`
0%
1&
0c
0?
1\
1d
1b
1]
1e
1c
0^
0d
11
02
0e
01
#244000
0!
0;
#246000
1!
1;
0Z
0[
0`
0&
0\
0b
0]
0c
1^
1d
12
1e
11
#248000
0!
0;
#250000
1!
1;
1h
1Z
1B
1>
1[
1`
1%
1&
1c
1?
1\
0d
1b
1]
0e
0c
0^
1d
01
02
1e
11
#252000
0!
0;
#254000
1!
1;
0Z
0[
0`
0&
0\
0b
0]
1c
1^
0d
12
0e
01
#256000
0!
0;
#258000
1!
1;
0h
1Z
0B
0>
1[
1`
0%
1&
0c
0?
1\
1d
1b
1]
1e
1c
0^
0d
11
02
0e
01
#260000
b1101 "
b1 #
b101 $
0!
1o
1q
1l
0;
1a
1X
0C
0@
0\
0D
1<
0`
0b
0X
1^
1d
0]
0a
0c
1e
1X
12
0d
0^
11
0e
02
01
#262000
1!
1;
#264000
0!
0;
#266000
1!
1;
#268000
0!
0;
#270000
1!
1;
#272000
0!
0;
#274000
1!
1;
#276000
0!
0;
#278000
1!
1;
#280000
b1111 "
b11 #
b111 $
b1110 "
b10 #
b110 $
0!
0o
1n
0q
1p
0l
1k
0;
0X
1V
0Q
1C
1@
1\
1=
0<
0[
1b
1]
0\
1c
1^
0b
0]
0c
0^
12
02
#282000
1!
1;
#284000
0!
0;
#286000
1!
1;
#288000
0!
0;
#290000
1!
1;
#292000
0!
0;
#294000
1!
1;
#296000
0!
0;
#298000
1!
1;
#300000
b1111 "
b11 #
b111 $
0!
1o
1q
1l
0;
1X
0V
1Q
0C
0@
0=
1`
1P
1G
#302000
1!
1;
#304000
0!
0;
#306000
1!
1;
#308000
0!
0;
#310000
1!
1;
#312000
0!
0;
#314000
1!
1;
#316000
0!
0;
#318000
1!
1;
#320000
b111 "
b11 "
b11 $
b1 "
b1 #
b1 $
b0 "
b0 #
b0 $
0!
0q
0p
0o
0n
0m
0l
0k
0j
0i
0;
1D
1[
0P
0G
1\
1]
#322000
1!
1;
0Z
0[
0`
0&
0\
0]
#324000
0!
0;
#326000
1!
1;
#328000
0!
0;
#330000
1!
1;
#332000
0!
0;
#334000
1!
1;
#336000
0!
0;
#338000
1!
1;
#340000
b1 "
b1 #
b1 $
0!
1o
1q
1l
0;
0D
1<
#342000
1!
1;
#344000
0!
0;
#346000
1!
1;
#348000
0!
0;
#350000
1!
1;
#352000
0!
0;
#354000
1!
1;
#356000
0!
0;
#358000
1!
1;
#360000
b11 "
b11 #
b11 $
b10 "
b10 #
b10 $
0!
0o
1n
0q
1p
0l
1k
0;
1V
0Q
1=
0<
#362000
1!
1;
#364000
0!
0;
#366000
1!
1;
#368000
0!
0;
#370000
1!
1;
#372000
0!
0;
#374000
1!
1;
#376000
0!
0;
#378000
1!
1;
#380000
b11 "
b11 #
b11 $
0!
1o
1q
1l
0;
0V
1Q
0=
1`
1P
1G
#382000
1!
1;
#384000
0!
0;
#386000
1!
1;
#388000
0!
0;
#390000
1!
1;
#392000
0!
0;
#394000
1!
1;
#396000
0!
0;
#398000
1!
1;
#400000
b111 "
b111 $
b101 "
b1 #
b101 $
b100 "
b0 #
b100 $
0!
0q
0p
0o
0n
1m
0l
0k
1j
0;
1D
0X
1C
0`
0P
0G
1^
12
#402000
1!
1;
1Z
1[
1`
1&
1\
1b
1]
1c
0^
1d
02
1e
11
#404000
0!
0;
#406000
1!
1;
1h
0Z
1B
1>
0[
0`
1%
0&
0c
1?
0\
0d
0b
0]
0e
1c
1^
1d
01
12
1e
11
#408000
0!
0;
#410000
1!
1;
1Z
1[
1`
1&
1\
1b
1]
0c
0^
0d
02
0e
01
#412000
0!
0;
#414000
1!
1;
0h
0Z
0B
0>
0[
0`
0%
0&
1c
0?
0\
1d
0b
0]
1e
0c
1^
0d
11
12
0e
01
#416000
0!
0;
#418000
1!
1;
1Z
1[
1`
1&
1\
1b
1]
1c
0^
1d
02
1e
11
#420000
b101 "
b1 #
b101 $
0!
1o
1q
1l
0;
1a
1X
0C
0\
0D
1<
0`
0b
0X
1^
0]
0a
0c
1X
12
0d
0^
0e
02
01
#422000
1!
1;
#424000
0!
0;
#426000
1!
1;
#428000
0!
0;
#430000
1!
1;
#432000
0!
0;
#434000
1!
1;
#436000
0!
0;
#438000
1!
1;
#440000
b111 "
b11 #
b111 $
b110 "
b10 #
b110 $
0!
0o
1n
0q
1p
0l
1k
0;
0X
1V
0Q
1C
1\
1=
0<
0[
1b
1]
0\
1c
1^
0b
0]
0c
0^
12
02
#442000
1!
1;
#444000
0!
0;
#446000
1!
1;
#448000
0!
0;
#450000
1!
1;
#452000
0!
0;
#454000
1!
1;
#456000
0!
0;
#458000
1!
1;
#460000
b111 "
b11 #
b111 $
0!
1o
1q
1l
0;
1X
0V
1Q
0C
0=
1`
1P
1G
#462000
1!
1;
#464000
0!
0;
#466000
1!
1;
#468000
0!
0;
#470000
1!
1;
#472000
0!
0;
#474000
1!
1;
#476000
0!
0;
#478000
1!
1;
#480000
b1111 "
b1011 "
b11 $
b1001 "
b1 #
b1 $
b1000 "
b0 #
b0 $
0!
0q
0p
0o
0n
0m
0l
0k
0j
1i
0;
1D
1[
1@
0P
0G
1\
1d
1]
1e
11
#482000
1!
1;
1h
0Z
1B
1>
0[
0`
1%
0&
1c
1?
0\
0]
#484000
0!
0;
#486000
1!
1;
#488000
0!
0;
#490000
1!
1;
#492000
0!
0;
#494000
1!
1;
#496000
0!
0;
#498000
1!
1;
#500000
b1001 "
b1 #
b1 $
0!
1o
1q
1l
0;
0D
0B
1<
0?
0c
0@
0d
0e
01
#502000
1!
1;
#504000
0!
0;
#506000
1!
1;
#508000
0!
0;
#510000
1!
1;
#512000
0!
0;
#514000
1!
1;
#516000
0!
0;
#518000
1!
1;
#520000
b1011 "
b11 #
b11 $
b1010 "
b10 #
b10 $
0!
0o
1n
0q
1p
0l
1k
0;
1V
0Q
1@
1=
0<
1?
0>
0?
#522000
1!
1;
#524000
0!
0;
#526000
1!
1;
#528000
0!
0;
#530000
1!
1;
#532000
0!
0;
#534000
1!
1;
#536000
0!
0;
#538000
1!
1;
#540000
b1011 "
b11 #
b11 $
0!
1o
1q
1l
0;
0V
1Q
0@
0=
1`
1P
1G
#542000
1!
1;
#544000
0!
0;
#546000
1!
1;
#548000
0!
0;
#550000
1!
1;
#552000
0!
0;
#554000
1!
1;
#556000
0!
0;
#558000
1!
1;
#560000
b1111 "
b111 $
b1101 "
b1 #
b101 $
b1100 "
b0 #
b100 $
0!
0q
0p
0o
0n
1m
0l
0k
1j
0;
1D
1B
0X
1C
1@
0`
0P
0G
1>
1c
1^
1d
1?
0d
1e
12
0e
11
01
#562000
1!
1;
0h
1Z
0B
0>
1[
1`
0%
1&
0c
0?
1\
1d
1b
1]
1e
1c
0^
0d
11
02
0e
01
#564000
0!
0;
#566000
1!
1;
0Z
0[
0`
0&
0\
0b
0]
0c
1^
1d
12
1e
11
#568000
0!
0;
#570000
1!
1;
1h
1Z
1B
1>
1[
1`
1%
1&
1c
1?
1\
0d
1b
1]
0e
0c
0^
1d
01
02
1e
11
#572000
0!
0;
#574000
1!
1;
0Z
0[
0`
0&
0\
0b
0]
1c
1^
0d
12
0e
01
#576000
0!
0;
#578000
1!
1;
0h
1Z
0B
0>
1[
1`
0%
1&
0c
0?
1\
1d
1b
1]
1e
1c
0^
0d
11
02
0e
01
#580000
b1101 "
b1 #
b101 $
0!
1o
1q
1l
0;
1a
1X
0C
0@
0\
0D
1<
0`
0b
0X
1^
1d
0]
0a
0c
1e
1X
12
0d
0^
11
0e
02
01
#582000
1!
1;
#584000
0!
0;
#586000
1!
1;
#588000
0!
0;
#590000
1!
1;
#592000
0!
0;
#594000
1!
1;
#596000
0!
0;
#598000
1!
1;
#600000
b1111 "
b11 #
b111 $
b1110 "
b10 #
b110 $
0!
0o
1n
0q
1p
0l
1k
0;
0X
1V
0Q
1C
1@
1\
1=
0<
0[
1b
1]
0\
1c
1^
0b
0]
0c
0^
12
02
#602000
1!
1;
#604000
0!
0;
#606000
1!
1;
#608000
0!
0;
#610000
1!
1;
#612000
0!
0;
#614000
1!
1;
#616000
0!
0;
#618000
1!
1;
#620000
b1111 "
b11 #
b111 $
0!
1o
1q
1l
0;
1X
0V
1Q
0C
0@
0=
1`
1P
1G
#622000
1!
1;
#624000
0!
0;
#626000
1!
1;
#628000
0!
0;
#630000
1!
1;
#632000
0!
0;
#634000
1!
1;
#636000
0!
0;
#638000
1!
1;
#640000
b111 "
b11 "
b11 $
b1 "
b1 #
b1 $
b0 "
b0 #
b0 $
0!
0q
0p
0o
0n
0m
0l
0k
0j
0i
0;
1D
1[
0P
0G
1\
1]
#642000
1!
1;
0Z
0[
0`
0&
0\
0]
#644000
0!
0;
#646000
1!
1;
#648000
0!
0;
#650000
1!
1;
#652000
0!
0;
#654000
1!
1;
#656000
0!
0;
#658000
1!
1;
#660000
b1 "
b1 #
b1 $
0!
1o
1q
1l
0;
0D
1<
#662000
1!
1;
#664000
0!
0;
#666000
1!
1;
#668000
0!
0;
#670000
1!
1;
#672000
0!
0;
#674000
1!
1;
#676000
0!
0;
#678000
1!
1;
#680000
b11 "
b11 #
b11 $
b10 "
b10 #
b10 $
0!
0o
1n
0q
1p
0l
1k
0;
1V
0Q
1=
0<
#682000
1!
1;
#684000
0!
0;
#686000
1!
1;
#688000
0!
0;
#690000
1!
1;
#692000
0!
0;
#694000
1!
1;
#696000
0!
0;
#698000
1!
1;
#700000
b11 "
b11 #
b11 $
0!
1o
1q
1l
0;
0V
1Q
0=
1`
1P
1G
#702000
1!
1;
#704000
0!
0;
#706000
1!
1;
#708000
0!
0;
#710000
1!
1;
#712000
0!
0;
#714000
1!
1;
#716000
0!
0;
#718000
1!
1;
#720000
b111 "
b111 $
b101 "
b1 #
b101 $
b100 "
b0 #
b100 $
0!
0q
0p
0o
0n
1m
0l
0k
1j
0;
1D
0X
1C
0`
0P
0G
1^
12
#722000
1!
1;
1Z
1[
1`
1&
1\
1b
1]
1c
0^
1d
02
1e
11
#724000
0!
0;
#726000
1!
1;
1h
0Z
1B
1>
0[
0`
1%
0&
0c
1?
0\
0d
0b
0]
0e
1c
1^
1d
01
12
1e
11
#728000
0!
0;
#730000
1!
1;
1Z
1[
1`
1&
1\
1b
1]
0c
0^
0d
02
0e
01
#732000
0!
0;
#734000
1!
1;
0h
0Z
0B
0>
0[
0`
0%
0&
1c
0?
0\
1d
0b
0]
1e
0c
1^
0d
11
12
0e
01
#736000
0!
0;
#738000
1!
1;
1Z
1[
1`
1&
1\
1b
1]
1c
0^
1d
02
1e
11
#740000
b101 "
b1 #
b101 $
0!
1o
1q
1l
0;
1a
1X
0C
0\
0D
1<
0`
0b
0X
1^
0]
0a
0c
1X
12
0d
0^
0e
02
01
#742000
1!
1;
#744000
0!
0;
#746000
1!
1;
#748000
0!
0;
#750000
1!
1;
#752000
0!
0;
#754000
1!
1;
#756000
0!
0;
#758000
1!
1;
#760000
b111 "
b11 #
b111 $
b110 "
b10 #
b110 $
0!
0o
1n
0q
1p
0l
1k
0;
0X
1V
0Q
1C
1\
1=
0<
0[
1b
1]
0\
1c
1^
0b
0]
0c
0^
12
02
#762000
1!
1;
#764000
0!
0;
#766000
1!
1;
#768000
0!
0;
#770000
1!
1;
#772000
0!
0;
#774000
1!
1;
#776000
0!
0;
#778000
1!
1;
#780000
b111 "
b11 #
b111 $
0!
1o
1q
1l
0;
1X
0V
1Q
0C
0=
1`
1P
1G
#782000
1!
1;
#784000
0!
0;
#786000
1!
1;
#788000
0!
0;
#790000
1!
1;
#792000
0!
0;
#794000
1!
1;
#796000
0!
0;
#798000
1!
1;
#800000
b1111 "
b1011 "
b11 $
b1001 "
b1 #
b1 $
b1000 "
b0 #
b0 $
0!
0q
0p
0o
0n
0m
0l
0k
0j
1i
0;
1D
1[
1@
0P
0G
1\
1d
1]
1e
11
#802000
1!
1;
1h
0Z
1B
1>
0[
0`
1%
0&
1c
1?
0\
0]
#804000
0!
0;
#806000
1!
1;
#808000
0!
0;
#810000
1!
1;
#812000
0!
0;
#814000
1!
1;
#816000
0!
0;
#818000
1!
1;
#820000
b1001 "
b1 #
b1 $
0!
1o
1q
1l
0;
0D
0B
1<
0?
0c
0@
0d
0e
01
#822000
1!
1;
#824000
0!
0;
#826000
1!
1;
#828000
0!
0;
#830000
1!
1;
#832000
0!
0;
#834000
1!
1;
#836000
0!
0;
#838000
1!
1;
#840000
b1011 "
b11 #
b11 $
b1010 "
b10 #
b10 $
0!
0o
1n
0q
1p
0l
1k
0;
1V
0Q
1@
1=
0<
1?
0>
0?
#842000
1!
1;
#844000
0!
0;
#846000
1!
1;
#848000
0!
0;
#850000
1!
1;
#852000
0!
0;
#854000
1!
1;
#856000
0!
0;
#858000
1!
1;
#860000
b1011 "
b11 #
b11 $
0!
1o
1q
1l
0;
0V
1Q
0@
0=
1`
1P
1G
#862000
1!
1;
#864000
0!
0;
#866000
1!
1;
#868000
0!
0;
#870000
1!
1;
#872000
0!
0;
#874000
1!
1;
#876000
0!
0;
#878000
1!
1;
#880000
b1111 "
b111 $
b1101 "
b1 #
b101 $
b1100 "
b0 #
b100 $
0!
0q
0p
0o
0n
1m
0l
0k
1j
0;
1D
1B
0X
1C
1@
0`
0P
0G
1>
1c
1^
1d
1?
0d
1e
12
0e
11
01
#882000
1!
1;
0h
1Z
0B
0>
1[
1`
0%
1&
0c
0?
1\
1d
1b
1]
1e
1c
0^
0d
11
02
0e
01
#884000
0!
0;
#886000
1!
1;
0Z
0[
0`
0&
0\
0b
0]
0c
1^
1d
12
1e
11
#888000
0!
0;
#890000
1!
1;
1h
1Z
1B
1>
1[
1`
1%
1&
1c
1?
1\
0d
1b
1]
0e
0c
0^
1d
01
02
1e
11
#892000
0!
0;
#894000
1!
1;
0Z
0[
0`
0&
0\
0b
0]
1c
1^
0d
12
0e
01
#896000
0!
0;
#898000
1!
1;
0h
1Z
0B
0>
1[
1`
0%
1&
0c
0?
1\
1d
1b
1]
1e
1c
0^
0d
11
02
0e
01
#900000
b1101 "
b1 #
b101 $
0!
1o
1q
1l
0;
1a
1X
0C
0@
0\
0D
1<
0`
0b
0X
1^
1d
0]
0a
0c
1e
1X
12
0d
0^
11
0e
02
01
#902000
1!
1;
#904000
0!
0;
#906000
1!
1;
#908000
0!
0;
#910000
1!
1;
#912000
0!
0;
#914000
1!
1;
#916000
0!
0;
#918000
1!
1;
#920000
b1111 "
b11 #
b111 $
b1110 "
b10 #
b110 $
0!
0o
1n
0q
1p
0l
1k
0;
0X
1V
0Q
1C
1@
1\
1=
0<
0[
1b
1]
0\
1c
1^
0b
0]
0c
0^
12
02
#922000
1!
1;
#924000
0!
0;
#926000
1!
1;
#928000
0!
0;
#930000
1!
1;
#932000
0!
0;
#934000
1!
1;
#936000
0!
0;
#938000
1!
1;
#940000
b1111 "
b11 #
b111 $
0!
1o
1q
1l
0;
1X
0V
1Q
0C
0@
0=
1`
1P
1G
#942000
1!
1;
#944000
0!
0;
#946000
1!
1;
#948000
0!
0;
#950000
1!
1;
#952000
0!
0;
#954000
1!
1;
#956000
0!
0;
#958000
1!
1;
#960000
b111 "
b11 "
b11 $
b1 "
b1 #
b1 $
b0 "
b0 #
b0 $
0!
0q
0p
0o
0n
0m
0l
0k
0j
0i
0;
1D
1[
0P
0G
1\
1]
#962000
1!
1;
0Z
0[
0`
0&
0\
0]
#964000
0!
0;
#966000
1!
1;
#968000
0!
0;
#970000
1!
1;
#972000
0!
0;
#974000
1!
1;
#976000
0!
0;
#978000
1!
1;
#980000
b1 "
b1 #
b1 $
0!
1o
1q
1l
0;
0D
1<
#982000
1!
1;
#984000
0!
0;
#986000
1!
1;
#988000
0!
0;
#990000
1!
1;
#992000
0!
0;
#994000
1!
1;
#996000
0!
0;
#998000
1!
1;
