simulation/qsim/ASSIGNMENT.msim.vcd
$comment
	File created using the following command:
		vcd file ASSIGNMENT.msim.vcd -direction
$end
$date
	Fri Oct 04 18:55:48 2019
$end
$version
	ModelSim Version 10.5b
$end
$timescale
	1ps
$end

$scope module ASSIGNMENT_vlg_vec_tst $end
$var reg 1 ! CLK $end
$var reg 4 " INPUT1 [3:0] $end
$var reg 2 # INPUT2 [1:0] $end
$var reg 3 $ S [2:0] $end
$var wire 1 % OA [3] $end
$var wire 1 & OA [2] $end
$var wire 1 ' OA [1] $end
$var wire 1 ( OA [0] $end
$var wire 1 ) OB [3] $end
$var wire 1 * OB [2] $end
$var wire 1 + OB [1] $end
$var wire 1 , OB [0] $end
$var wire 1 - OC [3] $end
$var wire 1 . OC [2] $end
$var wire 1 / OC [1] $end
$var wire 1 0 OC [0] $end
$var wire 1 1 OUTPUT [3] $end
$var wire 1 2 OUTPUT [2] $end
$var wire 1 3 OUTPUT [1] $end
$var wire 1 4 OUTPUT [0] $end

$scope module i1 $end
$var wire 1 5 gnd $end
$var wire 1 6 vcc $end
$var wire 1 7 unknown $end
$var tri1 1 8 devclrn $end
$var tri1 1 9 devpor $end
$var tri1 1 : devoe $end
$var wire 1 ; CLK~combout $end
$var wire 1 < inst4~regout $end
$var wire 1 = inst5~regout $end
$var wire 1 > inst|inst3|6~0_combout $end
$var wire 1 ? inst|inst3|6~1_combout $end
$var wire 1 @ inst|inst3|6~2_combout $end
$var wire 1 A ALU4B|inst3|inst|6~1_combout $end
$var wire 1 B ALU4B|inst3|inst|6~2_combout $end
$var wire 1 C ALU4B|inst3|inst10|inst1~0_combout $end
$var wire 1 D inst|inst2|2~combout $end
$var wire 1 E ALU4B|inst1|inst|6~4_combout $end
$var wire 1 F inst|inst1|4~0_combout $end
$var wire 1 G ALU4B|inst|inst|6~6_combout $end
$var wire 1 H inst1|inst1|6~0_combout $end
$var wire 1 I inst1|inst1|6~1_combout $end
$var wire 1 J ALU4B|inst2|inst|6~0_combout $end
$var wire 1 K inst|inst|6~0_combout $end
$var wire 1 L inst|inst|6~1_combout $end
$var wire 1 M ALU4B|inst|inst|6~4_combout $end
$var wire 1 N ALU4B|inst|inst|6~5_combout $end
$var wire 1 O inst1|inst|6~0_combout $end
$var wire 1 P inst1|inst|6~1_combout $end
$var wire 1 Q ALU4B|inst|inst10|inst4~0_combout $end
$var wire 1 R ALU4B|inst|inst10|inst4~1_combout $end
$var wire 1 S inst1|inst2|6~0_combout $end
$var wire 1 T inst1|inst2|6~1_combout $end
$var wire 1 U ALU4B|inst1|inst|6~2_combout $end
$var wire 1 V ALU4B|inst1|inst|6~3_combout $end
$var wire 1 W inst|inst2|4~0_combout $end
$var wire 1 X inst|inst2|4~1_combout $end
$var wire 1 Y ALU4B|inst1|inst10|inst4~0_combout $end
$var wire 1 Z ALU4B|inst3|inst10|inst1~1_combout $end
$var wire 1 [ ALU4B|inst3|inst|6~0_combout $end
$var wire 1 \ ALU4B|inst3|inst|6~3_combout $end
$var wire 1 ] A|dffs [3] $end
$var wire 1 ^ A|dffs [2] $end
$var wire 1 _ A|dffs [1] $end
$var wire 1 ` A|dffs [0] $end
$var wire 1 a B|dffs [3] $end
$var wire 1 b B|dffs [2] $end
$var wire 1 c B|dffs [1] $end
$var wire 1 d B|dffs [0] $end
$var wire 1 e C|dffs [3] $end
$var wire 1 f C|dffs [2] $end
$var wire 1 g C|dffs [1] $end
$var wire 1 h C|dffs [0] $end
$var wire 1 i INPUT1~combout [3] $end
$var wire 1 j INPUT1~combout [2] $end
$var wire 1 k INPUT1~combout [1] $end
$var wire 1 l INPUT1~combout [0] $end
$var wire 1 m S~combout [2] $end
$var wire 1 n S~combout [1] $end
$var wire 1 o S~combout [0] $end
$var wire 1 p INPUT2~combout [1] $end
$var wire 1 q INPUT2~combout [0] $end
$upscope $end
$upscope $end
$enddefinitions $end
#0
$dumpvars
0!
b0 "
b0 #
b0 $
0(
0'
0&
0%
0,
0+
0*
0)
00
0/
0.
0-
04
03
02
01
05
16
x7
18
19
1:
0;
0<
0=
0>
0?
0@
0A
0B
0C
0D
1E
0F
1G
0H
0I
0J
0K
0L
0M
0N
0O
0P
0Q
0R
0S
0T
0U
0V
0W
0X
0Y
0Z
0[
0\
0`
0_
0^
0]
0d
0c
0b
0a
0h
0g
0f
0e
0l
0k
0j
0i
0o
0n
0m
0q
0p
$end
#10000
1!
1;
1]
1C
1A
1>
1%
1Z
1?
#13000
b1 "
1l
1L
0?
1J
14
#17000
b1 #
1q
0C
0A
0Z
#20000
0!
0;
#23000
b1 $
1o
0L
0J
04
#26000
b11 "
b10 "
0l
1k
1?
0>
1@
0?
1[
0@
1\
0[
0\
11
01
#30000
1!
1;
1^
1S
1&
#34000
b11 #
b10 #
0q
1p
1T
0S
1U
0T
0U
#39000
b11 "
1l
1W
1K
1F
#40000
0!
0;
#46000
b11 $
b10 $
0o
1n
1Q
1L
0G
#50000
1!
1;
1_
1=
1<
1'
#51000
b11 #
1q
1C
1A
#52000
b111 "
b101 "
b100 "
0l
0k
1j
0L
0K
0Q
1G
1>
0E
1D
1?
#60000
0!
0;
#65000
b101 "
1l
0W
1L
0F
0?
#68000
b1 #
b0 #
0q
0p
1Z
1S
1H
1B
1T
1I
1\
1Y
1U
1M
11
0Z
1V
1N
12
13
#69000
b11 $
1o
0L
1E
0D
0Y
1Z
#70000
1!
1;
1f
1c
1g
1b
1e
1a
0=
1F
1W
1?
1.
1+
1/
1*
1-
1)
1Q
0G
1X
1@
1R
1Y
0E
0Z
#78000
b111 "
b110 "
0l
1k
0W
0F
0X
0Q
1G
1X
1Q
0G
1E
0R
0E
1R
#80000
0!
0;
#85000
b1 #
1q
#90000
1!
1;
1d
0<
1P
1,
1J
14
#91000
b111 "
1l
1W
1L
1K
1F
0?
0X
0L
0Q
1G
0@
1E
0R
0Y
1Z
#92000
b111 $
b101 $
b100 $
0o
0n
1m
1Q
1L
0G
0E
1D
1[
0B
0\
1R
0M
0J
0N
0V
1Y
1\
01
0U
1N
0Z
04
03
02
11
1V
0[
13
0\
12
01
#100000
0!
0;
#102000
b11 #
b10 #
0q
1p
0P
0C
0A
1Z
1M
1J
0Z
1[
0N
0[
1\
14
0\
03
11
01
#104000
b1111 "
b1011 "
b1001 "
b1000 "
0l
0k
0j
1i
0L
0K
1?
0Q
1G
1E
0D
1@
0R
0J
1N
0V
1[
0Y
1U
1\
04
13
02
1Z
1V
11
0[
12
0\
01
#110000
1!
1;
0d
1`
0e
0a
1=
1K
0Z
0,
1(
0-
0)
1[
1\
11
#115000
b101 $
1o
1X
1Q
1L
0G
1Y
0E
1R
1J
0N
1Z
0V
0U
14
03
0[
1V
02
0\
12
01
#117000
b1001 "
1l
0L
0K
0?
0J
0@
1[
04
1\
11
#119000
b11 #
1q
0T
0I
1C
1A
1U
0R
0M
0V
0Y
0U
1N
0Z
1V
02
13
0[
12
0\
01
#120000
0!
0;
#130000
b1011 "
b1010 "
1!
0l
1k
1;
0W
0F
1?
0X
0Q
1G
0>
1X
1Q
0G
1@
1E
0N
0?
0E
1N
1[
0V
0@
03
1V
1\
0[
13
02
0\
12
11
01
0]
0f
0`
1h
1e
1<
1>
0X
0S
1O
1K
0%
0.
0(
10
1-
1?
1E
1L
1@
0V
1J
1[
02
14
1\
11
#136000
b1 #
b0 #
0q
0p
1P
1I
0C
0A
1Z
1S
0O
1R
0J
0Z
0[
1T
0P
1Y
1[
0\
1M
1J
04
1Z
1\
0N
01
14
0[
11
03
0\
01
#138000
b111 $
b110 $
0o
1n
0L
1U
1N
0J
13
04
#140000
0!
0;
#143000
b1011 "
1l
1W
1L
1F
0?
#150000
1!
1;
0h
0^
0b
0e
0=
0S
0>
00
0&
0*
0-
0T
0Y
0U
0Z
#153000
b1 #
1q
#156000
b1111 "
b1101 "
b1100 "
0l
0k
1j
0W
0L
0K
0Q
1G
0E
1D
0R
0N
1Y
0Y
1Z
03
0Z
#160000
0!
0;
#161000
b111 $
1o
1Q
0G
1E
0D
0@
1R
1N
13
#169000
b1101 "
1l
#170000
b11 #
b10 #
1!
0q
1p
1;
1=
1d
0c
1a
1L
0F
1?
1,
0+
1)
0Q
1G
1@
0R
0N
03
#180000
0!
0;
#182000
b1111 "
b1110 "
0l
1k
0L
0?
1Q
0G
1R
0@
1N
13
#184000
b11 $
b1 $
b0 $
0o
0n
0m
0E
1D
1@
1U
1V
1Y
1[
1Z
1\
12
11
#187000
b11 #
1q
0I
1C
1A
0R
0M
0Y
0U
0Z
#190000
1!
1;
1]
1f
0d
1c
1^
1b
1e
0<
1>
1S
1%
1.
0,
1+
1&
1*
1-
1?
#195000
b1111 "
1l
1W
1L
1K
1F
0?
1J
14
#200000
0!
0;
#204000
b1 #
b0 #
0q
0p
1T
1I
1Z
1Y
1U
1R
1M
0Z
0U
#207000
b1 $
1o
0Q
0L
1G
1E
0D
0@
0R
0J
0N
0V
0[
0Y
1U
0\
04
03
02
1Z
01
#208000
b111 "
b11 "
b1 "
b0 "
0l
0k
0j
0i
1L
0K
1?
1X
1Q
0G
1R
1J
0L
1@
1Y
0E
1N
0U
0J
1[
0Z
1V
14
13
1\
04
12
11
#210000
1!
1;
1h
0=
10
#220000
0!
0;
#221000
b1 #
b1 "
1l
1q
#230000
b11 $
b10 $
1!
0o
1n
1;
0X
0Q
1L
1G
0@
0[
0V
1U
1B
1E
0R
1V
02
0Y
12
1Z
1`
0h
1<
1O
1(
00
#234000
b11 "
b10 "
0l
1k
0W
0L
0F
1Q
0G
1R
1Y
0Z
#238000
b11 #
b10 #
0q
1p
1P
0C
0A
1Z
0O
0B
1J
0Z
1B
0P
0\
1\
0J
14
01
11
04
#240000
0!
0;
#247000
b11 "
1l
1W
1L
1K
1F
0?
#250000
1!
1;
1d
0`
1=
1,
0(
#253000
b11 $
1o
0Q
0L
1G
0R
0Y
1Z
#255000
b11 #
1q
0T
0I
1C
1A
0U
0M
0Z
0B
0V
0N
0\
02
03
01
#260000
b111 "
b101 "
b100 "
0!
0l
0k
1j
0;
1L
0K
1?
1X
1Q
0G
0L
1@
0E
#270000
1!
1;
0]
0f
0d
0c
0_
0^
0g
0b
0e
0a
0<
0>
0S
0F
0H
0W
0%
0.
0,
0+
0'
0&
0/
0*
0-
0)
0?
0Q
1G
0X
0@
1E
#272000
b1 #
b0 #
0q
0p
0C
0A
1Z
1B
0Z
0B
1\
0\
11
01
#273000
b101 "
1l
#276000
b111 $
b101 $
b100 $
0o
0n
1m
1L
0E
1D
1J
1V
14
12
#280000
0!
0;
#286000
b111 "
b110 "
0l
1k
0L
1Q
0G
0J
1N
04
13
#289000
b1 #
1q
#290000
1!
1;
1c
1_
1^
1b
1e
0=
1I
1H
1S
1T
1>
1+
1'
1&
1*
1-
1R
1M
1Y
1U
1?
0U
0N
1Z
0V
1V
1[
03
02
1\
12
11
#299000
b101 $
b111 "
1l
1o
1W
1K
1F
0?
0Q
1G
1E
0D
1@
0@
0R
1N
0V
0[
0\
1[
0Y
1U
13
02
1\
0Z
1V
01
0[
11
12
0\
01
#300000
0!
0;
#306000
b11 #
b10 #
0q
1p
1Z
0S
0H
1[
0T
0I
1\
0U
0M
0V
0N
11
02
03
#310000
1!
1;
1]
0c
1`
0^
0b
1a
1=
1<
1%
0+
1(
0&
0*
1)
#312000
b1111 "
b1011 "
b1001 "
b1000 "
0l
0k
0j
1i
0W
1L
1?
1X
1Q
0G
0X
1J
1@
0E
1N
1E
0[
1V
14
13
0V
0\
12
02
01
#320000
0!
0;
#322000
b111 $
b110 $
0o
1n
0Q
0L
1G
0N
0J
1B
1\
03
04
11
#323000
b11 #
1q
1C
1A
0Z
0B
0\
01
#325000
b1001 "
1l
1L
0K
0F
#330000
1!
1;
0]
0`
0_
0e
0a
0>
0?
0%
0(
0'
0-
0)
#338000
b1011 "
b1010 "
0l
1k
0L
1Q
0G
#340000
b1 #
b0 #
0!
0q
0p
0;
0C
0A
1Z
1B
0Z
0B
1\
0\
11
01
#345000
b111 $
1o
0Q
1G
0@
#350000
1!
1;
0=
0<
#351000
b1011 "
1l
1W
1K
1F
#357000
b1 #
1q
#360000
0!
0;
#364000
b1111 "
b1101 "
b1100 "
0l
0k
1j
0W
1L
0K
0F
1X
1Q
0G
0X
0L
0Q
1G
0E
1E
#368000
b11 $
b1 $
b0 $
0o
0n
0m
0E
1D
1@
1V
1[
1\
12
11
#370000
1!
1;
1]
1f
1b
1e
1a
1C
1A
1>
1T
1%
1.
1*
1-
1)
1Z
1?
1Y
1U
0Z
#374000
b11 #
b10 #
0q
1p
0T
0C
0A
1Z
1S
0Y
0U
0Z
1T
1Z
1Y
1U
0Z
#377000
b1101 "
1l
1W
1L
1J
14
#380000
0!
0;
#390000
b1111 "
b1110 "
1!
0l
1k
1;
0W
0L
1Q
0G
0J
1N
04
13
1d
1h
1^
1=
1<
1O
1K
1,
10
1&
1P
#391000
b1 $
b11 #
1q
1o
0T
0P
1C
1A
1X
0Q
1L
1G
1E
0D
0Y
0U
1J
1Z
0E
0N
0V
0Z
1V
14
03
02
12
#400000
0!
0;
#403000
b1111 "
1l
1W
0L
1F
0?
0X
0J
0@
1E
0[
04
0V
0\
02
01
#408000
b1 #
b0 #
0q
0p
1T
1P
1Z
0O
1U
0P
#410000
1!
1;
0]
0f
0d
0h
0^
0b
0e
0a
0=
0C
0A
0>
0S
0%
0.
0,
00
0&
0*
0-
0)
0Z
0T
0U
#414000
b11 $
b10 $
0o
1n
1Q
1L
0G
0E
1D
1@
#416000
b111 "
b11 "
b1 "
b0 "
0l
0k
0j
0i
0W
0L
0K
0F
0Q
1G
1E
0D
0@
#420000
0!
0;
#425000
b1 #
1q
#429000
b1 "
1l
1L
#430000
1!
1;
1a
1C
1A
1?
1)
1Z
1B
1\
11
#437000
b11 $
1o
0L
1@
#440000
0!
0;
#442000
b11 #
b11 "
b10 #
b10 "
0l
1k
0q
1p
0?
0C
0A
0Z
0B
0@
0\
01
#450000
1!
1;
1b
1=
0<
1*
#455000
b11 "
1l
1W
1K
1F
#459000
b11 #
1q
1C
1A
#460000
b111 $
b101 $
b100 $
0!
0o
0n
1m
0;
1Q
1L
0G
1J
1N
14
13
#468000
b111 "
b101 "
b100 "
0l
0k
1j
0W
0L
0K
0F
0Q
1G
0E
1D
0J
0N
1V
04
03
12
#470000
1!
1;
1^
1e
0a
1W
1&
1-
0)
#476000
b1 #
b0 #
0q
0p
0C
0A
1Z
1S
0Z
1[
1T
0[
1\
1Y
1U
0\
1Z
0V
11
1[
01
02
1\
11
#480000
0!
0;
#481000
b101 "
1l
1L
1J
14
#483000
b101 $
1o
1X
0L
1E
0D
0E
0J
1V
0V
04
12
02
#490000
1!
1;
1]
1f
0^
0b
1a
0=
1<
1C
1A
1>
0S
0W
1?
1%
1.
0&
0*
1)
0Z
0T
0X
1@
0Y
0U
1E
1Z
0[
0\
01
#493000
b1 #
1q
#494000
b111 "
b110 "
0l
1k
1X
0E
1V
12
#500000
0!
0;
#506000
b111 $
b110 $
0o
1n
0X
1Q
0G
1D
0@
0V
1B
02
#507000
b111 "
1l
1W
1L
1K
1F
0?
#510000
b11 #
b10 #
1!
0q
1p
1;
0C
0A
0Z
1S
0B
1Z
1B
1T
1Y
1U
0Z
1V
12
1=
0]
0f
1b
0e
0>
0S
1Z
0B
0%
0.
1*
0-
0T
0Y
0U
0Z
0V
02
#520000
b1111 "
b1011 "
b1001 "
b1000 "
0!
0l
0k
0j
1i
0;
0W
0L
0K
0F
0Q
1G
1E
0D
1@
#527000
b11 #
1q
1C
1A
#529000
b111 $
1o
0@
#530000
1!
1;
0b
0a
0<
0*
0)
#533000
b1001 "
1l
#540000
0!
0;
#544000
b1 #
b0 #
0q
0p
0C
0A
1Z
1B
0Z
0B
#546000
b1011 "
b1010 "
0l
1k
#550000
1!
1;
1e
0=
1>
1-
1?
1@
#552000
b11 $
b1 $
b0 $
0o
0n
0m
1Q
0G
1[
1N
1\
13
11
#559000
b1011 "
1l
1W
1L
1K
1F
0?
1J
14
#560000
0!
0;
#561000
b1 #
1q
#570000
1!
1;
1]
1d
1c
1h
1g
1a
1<
1C
1A
1P
1I
1%
1,
1+
10
1/
1)
1Z
1R
1U
#572000
b1111 "
b1101 "
b1100 "
0l
0k
1j
0W
0L
0K
0F
1?
0Q
1G
0E
1D
0R
1M
0J
0N
1V
1Y
0Y
0U
0Z
04
03
12
1Z
#575000
b1 $
1o
1E
0D
0V
02
#578000
b11 #
b10 #
0q
1p
0P
0I
0C
0A
0Z
1O
1H
0M
1Z
1P
1I
1M
#580000
0!
0;
#585000
b1101 "
1l
1L
1F
1R
0M
1J
1Q
0G
1U
1N
14
13
#590000
1!
1;
0c
1`
1_
1b
1=
0F
1W
0+
1(
1'
1*
0Q
1G
1X
0N
1Y
0E
0Z
1V
03
12
#595000
b11 #
1q
0P
0I
1C
1A
0R
1Z
0Y
0U
0Z
#598000
b11 $
b1111 "
b10 $
b1110 "
0l
1k
0o
1n
0W
0L
1K
0X
1Q
0G
1D
0[
0V
0J
0\
02
04
01
#600000
0!
0;
#610000
1!
1;
0]
0d
0`
0h
0_
0g
0b
0e
0a
0<
0>
0O
0K
0H
0%
0,
0(
00
0'
0/
0*
0-
0)
0?
#611000
b1111 "
1l
1W
1L
1K
1F
#612000
b1 #
b0 #
0q
0p
0C
0A
1Z
1B
0Z
0B
1\
0\
11
01
#620000
0!
0;
#621000
b11 $
1o
0Q
0L
1G
1E
0D
0@
#624000
b111 "
b11 "
b1 "
b0 "
0l
0k
0j
0i
0W
1L
0K
0F
1X
1Q
0G
0X
0L
0Q
1G
0E
1E
#629000
b1 #
1q
#630000
1!
1;
1e
0=
1-
#637000
b1 "
1l
#640000
0!
0;
#644000
b111 $
b101 $
b100 $
0o
0n
1m
1L
1J
14
#646000
b11 #
b10 #
0q
1p
1Z
1[
1\
11
#650000
b11 "
b10 "
1!
0l
1k
1;
0L
1Q
0G
1>
0J
1N
1?
04
13
1]
1d
1h
1a
1=
1<
1O
1K
1%
1,
10
1)
1P
1J
14
#660000
0!
0;
#663000
b11 #
b11 "
1l
1q
1W
1L
1F
0?
0P
1C
1A
0Z
0[
0\
01
#667000
b101 $
1o
0Q
0L
1G
0J
0N
04
03
#670000
1!
1;
0]
0d
0h
0e
0a
0>
0O
0%
0,
00
0-
0)
#676000
b111 "
b101 "
b100 "
0l
0k
1j
0W
1L
0K
0F
1X
1Q
0G
0X
1J
0L
0Q
1G
0E
1N
1E
0J
0N
1V
14
13
0V
04
03
12
02
#680000
b1 #
b0 #
0!
0q
0p
0;
0C
0A
1Z
0Z
1[
0[
1\
0\
11
01
#689000
b101 "
1l
#690000
b111 $
b110 $
1!
0o
1n
1;
1L
0E
1D
0=
#697000
b1 #
1q
#700000
0!
0;
#702000
b111 "
b110 "
0l
1k
0L
1Q
0G
#710000
1!
1;
1a
0<
1C
1A
1)
1Z
1B
#713000
b111 $
1o
0Q
1G
1E
0D
#714000
b11 #
b10 #
0q
1p
0C
0A
0Z
0B
#715000
b111 "
1l
1W
1K
1F
#720000
0!
0;
#728000
b1111 "
b1011 "
b1001 "
b1000 "
0l
0k
0j
1i
0W
1L
0K
0F
1X
1Q
0G
0X
0L
0Q
1G
0E
1E
#730000
1!
1;
1]
0a
1=
1>
1%
0)
1?
1@
#731000
b11 #
1q
1C
1A
#736000
b11 $
b1 $
b0 $
0o
0n
0m
1[
1\
11
#740000
0!
0;
#741000
b1001 "
1l
1L
0?
1J
14
#748000
b1 #
b0 #
0q
0p
1Z
#750000
1!
1;
1d
1`
1e
1a
0=
1<
1O
1?
1,
1(
1-
1)
1P
1M
#754000
b1011 "
b1010 "
0l
1k
0L
1Q
0G
0M
0J
1N
04
13
#759000
b1 $
1o
0Q
1G
0N
03
#760000
0!
0;
#765000
b1 #
1q
#767000
b1011 "
1l
1W
1L
1K
1F
0?
1M
1J
0L
0@
0M
0J
0[
14
0\
04
01
#770000
1!
1;
0]
0d
0`
1b
0e
0>
0P
0O
1T
0%
0,
0(
1*
0-
1U
#780000
b1111 "
b1101 "
b1100 "
0!
0l
0k
1j
0;
0W
1L
0K
0F
1X
1Q
0G
0X
1J
0L
0Q
1G
1Y
0E
1N
0Y
1E
0J
0N
0Z
1V
14
13
1Z
0V
04
03
12
02
#782000
b11 $
b11 #
b10 $
b10 #
0q
1p
0o
1n
0T
0C
0A
0Z
0E
1D
1@
1V
0U
12
0V
02
#790000
1!
1;
1c
1=
0<
1+
#793000
b1101 "
1l
1W
1L
1F
1?
#799000
b11 #
1q
1C
1A
#800000
0!
0;
#805000
b11 $
1o
1X
1Q
0L
0G
1E
0D
0E
#806000
b1111 "
b1110 "
0l
1k
0W
0F
0?
0X
0Q
1G
0@
1E
#810000
1!
1;
0c
0b
1e
0a
1>
0+
0*
1-
0)
1?
1@
#816000
b1 #
b0 #
0q
0p
0C
0A
1Z
1B
0Z
0B
1\
0\
11
01
#819000
b1111 "
1l
1W
1K
1F
0?
0@
#820000
0!
0;
#828000
b111 $
b101 $
b100 $
0o
0n
1m
1Q
1L
0G
0E
1D
1@
1J
1N
1V
1[
1\
14
13
12
11
#830000
1!
1;
1]
1f
1d
1c
1`
1_
1^
1b
1a
0=
1<
1C
1A
1S
1O
1H
1%
1.
1,
1+
1(
1'
1&
1*
1)
1Z
1T
1P
1I
0[
1Y
1U
1R
0J
0\
0Z
0V
0U
04
1[
1V
01
02
1\
12
11
#832000
b111 "
b11 "
b1 "
b0 "
0l
0k
0j
0i
0L
1?
0Q
1G
1E
0D
0@
0R
1M
1J
0N
0V
0[
0Y
1U
1N
0\
14
03
02
1Z
1V
13
01
1[
12
1\
11
#833000
b1 #
1q
#840000
0!
0;
#845000
b1 "
1l
1L
0K
1R
0M
0J
1Y
0U
0N
04
0Z
0V
03
0[
02
0\
01
#850000
b11 #
b10 #
1!
0q
1p
1;
0C
0A
1Z
0O
0H
0Z
1[
0P
0I
0[
1\
0R
1J
0\
0Y
1U
11
14
1Z
1V
01
1[
12
1\
11
1=
0]
0f
0`
0_
0^
0e
0>
0S
0Z
0%
0.
0(
0'
0&
0-
0T
0[
0U
0\
0V
01
02
#851000
b101 $
1o
1X
1Q
0G
1@
0E
1N
1[
1V
1\
13
12
11
#858000
b11 "
b10 "
0l
1k
0W
0L
0F
0?
0X
0Q
1G
0J
0@
1E
0N
0[
0V
04
03
0\
02
01
#860000
0!
0;
#867000
b11 #
1q
1C
1A
#870000
1!
1;
0d
0c
0b
0a
0<
0,
0+
0*
0)
#871000
b11 "
1l
1W
1K
1F
#874000
b111 $
b110 $
0o
1n
1Q
1L
0G
#880000
0!
0;
#884000
b111 "
b1 #
b101 "
b0 #
b100 "
0q
0p
0l
0k
1j
0C
0A
1Z
1B
0W
0L
0K
0F
0Q
1G
0E
1D
0Z
0B
#890000
1!
1;
1e
0=
1-
#897000
b111 $
b101 "
1l
1o
1E
0D
#900000
0!
0;
#901000
b1 #
1q
#910000
b111 "
b110 "
1!
0l
1k
1;
1>
1?
1@
1]
0e
1<
0>
1%
0-
0?
0@
#918000
b11 #
b10 #
0q
1p
#920000
b11 $
b1 $
b0 $
0!
0o
0n
0m
0;
1Q
0G
0E
1D
1N
1V
13
12
#923000
b111 "
1l
1W
1L
1K
1F
1J
14
#930000
1!
1;
0]
1f
1`
1h
1_
1^
1g
1a
1=
1S
1O
1H
0%
1.
1(
10
1'
1&
1/
1)
1T
1P
1I
1Y
1U
1R
1Z
0U
#935000
b11 #
1q
0T
0P
0I
1C
1A
1U
0R
0Y
0U
0Z
#936000
b1111 "
b1011 "
b1001 "
b1000 "
0l
0k
0j
1i
0L
0Q
1G
1E
0D
1@
0J
0N
0V
1[
1\
04
03
02
11
#940000
0!
0;
#943000
b1 $
1o
1X
1Q
1L
0G
0@
0E
1J
1N
0[
1V
0\
14
13
12
01
#949000
b1001 "
1l
0W
0L
0K
0F
1?
0X
0J
0Q
1G
1@
1E
0N
1[
04
0V
1\
03
02
11
#950000
1!
1;
1]
0f
0`
0h
0_
0^
0g
1e
1>
0S
0O
0H
1%
0.
0(
00
0'
0&
0/
1-
#952000
b1 #
b0 #
0q
0p
1Z
#960000
0!
0;
#962000
b1011 "
b1010 "
0l
1k
#966000
b11 $
b10 $
0o
1n
1Q
0G
0[
1B
#969000
b1 #
1q
#970000
1!
1;
0=
0<
#975000
b1011 "
1l
1W
1L
1K
1F
0?
#980000
0!
0;
#986000
b11 #
b10 #
0q
1p
0C
0A
0Z
0B
1Z
1B
0\
1\
01
11
#988000
b1111 "
b1101 "
b1100 "
0l
0k
1j
0W
0L
0K
0F
1?
0Q
1G
0E
1D
#989000
b11 $
1o
1E
0D
#990000
1!
1;
1^
1=
1W
1&
1X
0E
