simulation/qsim/ASSIGNMENT.msim.vcd
$comment
	File created using the following command:
		vcd file ASSIGNMENT.msim.vcd -direction
$end
$date
	Fri Oct 04 16:53:06 2019
$end
$version
	ModelSim Version 10.5b
$end
$timescale
	1ps
$end

$scope module ASSIGNMENT_vlg_vec_tst $end
$var reg 1 ! CLK $end
$var reg 1 " GND $end
$var reg 4 # INPUT1 [3:0] $end
$var reg 2 $ INPUT2 [1:0] $end
$var reg 3 % S [2:0] $end
$var wire 1 & OA [3] $end
$var wire 1 ' OA [2] $end
$var wire 1 ( OA [1] $end
$var wire 1 ) OA [0] $end
$var wire 1 * OB [3] $end
$var wire 1 + OB [2] $end
$var wire 1 , OB [1] $end
$var wire 1 - OB [0] $end
$var wire 1 . OC [3] $end
$var wire 1 / OC [2] $end
$var wire 1 0 OC [1] $end
$var wire 1 1 OC [0] $end
$var wire 1 2 OUTPUT [3] $end
$var wire 1 3 OUTPUT [2] $end
$var wire 1 4 OUTPUT [1] $end
$var wire 1 5 OUTPUT [0] $end

$scope module i1 $end
$var wire 1 6 gnd $end
$var wire 1 7 vcc $end
$var wire 1 8 unknown $end
$var tri1 1 9 devclrn $end
$var tri1 1 : devpor $end
$var tri1 1 ; devoe $end
$var wire 1 < CLK~combout $end
$var wire 1 = inst5~0_combout $end
$var wire 1 > inst1|inst3|6~1_combout $end
$var wire 1 ? inst7~0_combout $end
$var wire 1 @ inst|inst3|6~0_combout $end
$var wire 1 A inst|inst3|6~1_combout $end
$var wire 1 B inst|inst3|6~3_combout $end
$var wire 1 C GND~combout $end
$var wire 1 D inst1|inst3|6~0_combout $end
$var wire 1 E inst1|inst3|6~2_combout $end
$var wire 1 F inst|inst3|6~2_combout $end
$var wire 1 G inst|inst2|2~combout $end
$var wire 1 H inst|inst|4~1_combout $end
$var wire 1 I inst|inst|4~0_combout $end
$var wire 1 J inst|inst2|4~0_combout $end
$var wire 1 K inst|inst2|4~1_combout $end
$var wire 1 L ALU4B|inst1|inst|6~4_combout $end
$var wire 1 M inst|inst1|2~combout $end
$var wire 1 N inst|inst1|4~0_combout $end
$var wire 1 O inst|inst1|4~1_combout $end
$var wire 1 P ALU4B|inst|inst|6~4_combout $end
$var wire 1 Q inst|inst|2~combout $end
$var wire 1 R ALU4B|inst2|inst|6~2_combout $end
$var wire 1 S inst|inst|4~2_combout $end
$var wire 1 T inst|inst|4~3_combout $end
$var wire 1 U ALU4B|inst2|inst|6~4_combout $end
$var wire 1 V ALU4B|inst2|inst|6~3_combout $end
$var wire 1 W inst1|inst|6~0_combout $end
$var wire 1 X inst1|inst|6~1_combout $end
$var wire 1 Y ALU4B|inst2|inst10|inst4~0_combout $end
$var wire 1 Z ALU4B|inst|inst|6~2_combout $end
$var wire 1 [ ALU4B|inst|inst|6~3_combout $end
$var wire 1 \ inst1|inst1|6~0_combout $end
$var wire 1 ] inst1|inst1|6~1_combout $end
$var wire 1 ^ ALU4B|inst|inst10|inst4~0_combout $end
$var wire 1 _ ALU4B|inst1|inst|6~2_combout $end
$var wire 1 ` ALU4B|inst1|inst|6~3_combout $end
$var wire 1 a inst1|inst2|6~0_combout $end
$var wire 1 b inst1|inst2|6~1_combout $end
$var wire 1 c ALU4B|inst1|inst10|inst4~0_combout $end
$var wire 1 d ALU4B|inst3|inst10|inst1~combout $end
$var wire 1 e ALU4B|inst3|inst|6~0_combout $end
$var wire 1 f ALU4B|inst3|inst|6~1_combout $end
$var wire 1 g A|dffs [3] $end
$var wire 1 h A|dffs [2] $end
$var wire 1 i A|dffs [1] $end
$var wire 1 j A|dffs [0] $end
$var wire 1 k S~combout [2] $end
$var wire 1 l S~combout [1] $end
$var wire 1 m S~combout [0] $end
$var wire 1 n B|dffs [3] $end
$var wire 1 o B|dffs [2] $end
$var wire 1 p B|dffs [1] $end
$var wire 1 q B|dffs [0] $end
$var wire 1 r C|dffs [3] $end
$var wire 1 s C|dffs [2] $end
$var wire 1 t C|dffs [1] $end
$var wire 1 u C|dffs [0] $end
$var wire 1 v INPUT2~combout [1] $end
$var wire 1 w INPUT2~combout [0] $end
$var wire 1 x INPUT1~combout [3] $end
$var wire 1 y INPUT1~combout [2] $end
$var wire 1 z INPUT1~combout [1] $end
$var wire 1 { INPUT1~combout [0] $end
$upscope $end
$upscope $end
$enddefinitions $end
#0
$dumpvars
0!
0"
b11 #
b10 $
b1 %
0)
0(
0'
0&
0-
0,
0+
0*
01
00
0/
0.
05
04
03
02
06
17
x8
19
1:
1;
0<
1=
0>
1?
0@
0A
0B
0C
0D
0E
0F
0G
0H
1I
0J
0K
1L
0M
0N
0O
1P
0Q
0R
0S
0T
1U
0V
0W
0X
0Y
0Z
0[
0\
0]
0^
0_
0`
0a
0b
0c
0d
0e
0f
0j
0i
0h
0g
1m
0l
0k
0q
0p
0o
0n
0u
0t
0s
0r
0w
1v
1{
1z
0y
0x
$end
#5000
1!
1<
#7000
b101 %
b100 %
0m
1k
0U
1Q
0P
1M
0I
1V
1[
15
14
#10000
b1011 #
b1111 #
b1101 #
0!
0z
1y
1x
0<
1P
0M
1H
0L
1G
1F
1B
0[
1`
1d
1e
04
13
1f
12
#14000
b110 %
b10 %
b11 %
1m
1l
0k
1U
0Q
1L
1I
0G
0F
0B
0f
0`
0V
0d
02
03
05
#15000
b0 $
b1 $
1!
1w
0v
1<
1>
#20000
b1100 #
b100 #
0!
0{
0x
0<
0H
#21000
b1 %
0l
1f
0e
0f
12
02
#25000
1!
1<
#28000
b0 %
0m
0L
0I
1G
1`
13
#30000
b0 #
b1000 #
0!
0y
1x
0<
1L
0G
1F
1B
0`
1e
1d
1f
03
12
#35000
1!
1<
1g
1r
1n
1@
1E
1&
1.
1*
1A
0d
#40000
b1010 #
b1110 #
0!
1z
1y
0<
0P
1M
0L
1G
1[
1`
14
13
#42000
b100 %
b101 %
1m
1k
1P
0M
1L
1I
0G
0e
0[
0`
0f
04
03
02
#45000
1!
1<
0g
0r
0n
0@
0E
0&
0.
0*
0A
1d
0F
0B
1e
1f
0d
0e
12
0f
02
#49000
b111 %
b11 %
1l
0k
1e
#50000
b1111 #
b111 #
b101 #
0!
1{
0z
0x
0<
1H
#55000
1!
1<
1n
1E
1A
1*
1f
1d
1F
1B
0d
12
#56000
b10 %
b0 %
0m
0l
0U
1Q
0L
0I
1G
0F
0B
1V
1`
0e
1d
0f
15
13
02
#60000
b11 $
b10 $
b1 #
0!
0y
0w
1v
0<
1L
0G
0>
0`
0E
0d
03
#63000
b100 %
1k
#65000
1!
1<
1q
1j
1u
0n
1W
0A
1-
1)
11
0*
1X
1Y
1R
1Z
0V
1[
05
14
#70000
b11 #
b101 %
b111 #
0!
1m
1z
1y
0<
1U
0Q
1I
0H
1V
0Y
0Z
15
0[
04
#75000
b0 $
b1 $
1!
1w
0v
1<
1>
#77000
b100 %
0m
0U
1Q
0P
1M
0L
0I
1G
0V
1Y
1[
1`
1^
1Z
05
14
13
1c
1_
0[
1d
0`
04
1e
03
1f
12
#80000
b110 #
b1110 #
b1100 #
0!
0{
0z
1x
0<
1U
1S
0Q
1P
0M
1F
1B
1V
0Y
1[
0^
0d
0Z
0c
0_
0e
15
14
0[
1d
1`
0f
1e
04
13
02
1f
12
#84000
b101 %
1m
1L
1I
0G
0F
0B
0`
1T
0d
1Y
0U
0e
03
1Z
0V
0f
1[
05
02
14
#85000
1!
1<
1p
0q
0j
0u
1i
1t
1]
0X
0W
0S
1N
1,
0-
0)
01
1(
10
1^
0Z
0Y
0R
0T
1O
1_
0[
1Z
1V
1U
0P
1`
0V
04
15
13
05
#90000
b1000 #
b0 $
b1010 #
0!
0w
1z
0y
0<
1\
0>
#95000
1!
1<
1o
0p
0i
0t
1s
1h
0\
0N
1a
1J
1+
0,
0(
00
1/
1'
0]
0O
1b
1K
0^
0Z
1P
1c
0_
0L
1_
1d
0`
1e
1f
03
12
#98000
b1 %
0k
0e
1`
0f
13
02
#100000
b10 #
b110 #
b100 #
0!
0z
1y
0x
0<
0=
#105000
b10 $
b0 %
b11 $
1!
0m
1w
1v
1<
0I
1G
0a
1=
0K
0b
0c
0_
0d
1g
1i
0h
1@
1N
0J
1&
1(
0'
1A
#110000
b101 #
b1 #
b11 #
0!
1{
1z
0y
0<
0U
1Q
0N
0A
0P
1M
0@
1L
0G
1V
1[
0`
15
14
03
#115000
1!
1<
0g
0o
1p
1q
1j
1u
1t
0s
1W
0&
0+
1,
1-
1)
11
10
0/
#119000
b10 %
1l
1e
0[
0V
04
05
#120000
b1 $
0!
0v
0<
1X
1>
1Y
1R
1]
1^
1Z
1V
1[
15
14
#125000
1!
1<
#126000
b11 %
b1 %
1m
0l
1U
0Q
1P
0M
1I
1f
0e
1_
0Z
0V
0Y
0[
0f
12
0^
1Z
05
04
02
0_
#130000
b111 #
0!
1y
0<
#135000
1!
1<
0p
0q
0j
0u
0i
0t
0]
0X
0W
0,
0-
0)
01
0(
00
0Z
0R
#140000
b101 %
b1111 #
b1110 #
b1100 #
b1000 #
0!
0{
0z
0y
1x
1k
0<
#145000
1!
1<
#147000
b100 %
b110 %
b10 %
0m
1l
0k
0I
1F
1B
1e
1d
#150000
b0 $
b1100 #
0!
1y
0w
0<
0L
1G
0>
0=
#154000
b110 %
1k
0e
#155000
1!
1<
1g
1D
1@
1&
1E
1A
1f
0d
12
#160000
b1101 #
0!
1{
0<
0U
1Q
1H
0A
1=
#161000
b100 %
0l
0f
1`
1V
02
13
15
#165000
b10 $
b11 $
1!
1w
1v
1<
0D
0E
1d
1e
1f
12
0g
1o
1q
1j
1u
1s
1h
0@
1W
0&
1+
1-
1)
11
1/
1'
#170000
b1100 #
0!
0{
0<
1U
1S
0Q
1J
0H
0V
05
#175000
b101 %
b1 %
b11 %
1!
1m
1l
0k
1<
1L
1I
0G
0F
0B
0f
0`
1T
1K
0d
02
03
0U
0L
1g
0q
0j
0u
1r
1n
1@
0W
0S
1&
0-
0)
01
1.
1*
1A
0T
1F
1B
1U
1d
#180000
b100 #
b0 #
b1 $
b0 $
b1 #
0!
0w
0v
1{
0y
0x
0<
1a
1D
0J
1H
1b
1E
1c
1_
1f
0d
1d
1`
12
13
#182000
b10 %
0m
0U
1Q
0I
0F
0B
0K
0d
0c
1L
1d
#185000
1!
1<
#189000
b0 %
b1 %
1m
0l
1U
0Q
1I
1F
1B
0e
0`
1V
0V
1K
1e
0f
0d
03
15
1c
0L
1f
05
02
1d
1`
12
13
#190000
b101 #
b100 #
0!
0{
1y
0<
1J
0H
0=
#195000
b10 $
b11 $
1!
1w
1v
1<
0a
0D
1=
0b
0E
0c
0_
0d
1d
1i
1N
1(
1O
0P
1[
14
#196000
b11 %
b10 %
0m
1l
0I
1G
0F
0B
0f
0`
0[
0O
0K
0d
02
03
04
1P
#200000
b110 #
b1110 #
0!
1z
1x
0<
0P
0N
1M
1F
1B
1d
#203000
b0 %
0l
1f
1`
1[
12
13
14
#205000
1!
1<
1p
1t
1N
1,
10
#210000
b1010 #
b1011 #
0!
1{
0y
0<
0U
1Q
0N
0J
0A
1L
0G
1V
0`
15
03
#215000
1!
1<
0o
1q
1j
1u
0s
0h
1W
0+
1-
1)
11
0/
0'
#217000
b1 %
b11 %
1m
1l
1U
0Q
1P
0M
1I
0F
0B
0f
0[
0V
0d
02
04
05
#220000
b1001 #
b1 #
b101 #
0!
0z
1y
0x
0<
1H
1A
1T
1O
1F
1B
0U
0P
1d
#224000
b111 %
b101 %
0l
1k
1f
1[
1V
12
14
15
#225000
b10 $
1!
0w
1<
1\
1X
1D
1]
1Y
1R
1E
1^
0V
0d
1_
0e
05
1`
0f
13
02
#230000
b111 #
b1111 #
b1011 #
0!
1z
0y
1x
0<
0H
0A
0T
0O
0F
0B
0Y
1U
1P
1d
0^
1Z
1V
0[
1e
0_
1[
1f
15
04
0`
14
12
03
#231000
b1 %
b11 %
1l
0k
#235000
1!
1<
#238000
b10 %
0m
0U
1Q
0P
1M
0I
1F
1B
1Y
1^
0d
#240000
b1010 #
b11 $
b10 #
0!
1w
0{
0x
0<
0\
0X
0D
1U
1S
0Q
1N
1A
0F
0B
0]
0Y
0R
0E
1d
0^
0Z
0V
0f
0d
0[
05
02
04
#245000
b11 %
1!
1m
1<
1P
0M
1I
1F
1B
1T
1O
1d
0U
0P
0g
0p
0q
0j
0u
0i
0t
0r
0n
0@
0W
0S
0N
0&
0,
0-
0)
01
0(
00
0.
0*
0A
0T
0O
0F
0B
1U
1P
0d
#250000
b0 #
b100 #
b101 #
0!
1{
0z
1y
0<
1H
#252000
b10 %
0m
0U
1Q
0L
0I
1G
#255000
b1 $
1!
0v
1<
1>
#259000
b0 %
b1 %
1m
0l
1U
0Q
1L
1I
0G
1f
0e
1`
1V
0V
0`
0f
12
13
15
05
03
02
#260000
b100 #
0!
0{
0<
0H
#265000
1!
1<
#266000
b101 %
b111 %
1l
1k
#270000
b0 $
b1100 #
b1110 #
b1010 #
b10 $
0!
1z
0y
1x
0w
1v
0<
0?
0>
#275000
1!
1<
1r
1D
1@
1.
1E
1A
1d
1F
1B
1f
0d
12
#280000
b10 #
b0 #
0!
0z
0x
0<
0@
1?
0A
0F
0B
0f
1d
02
#285000
b11 $
1!
1w
1<
0D
0E
0d
0r
0.
#287000
b11 %
b1 %
0l
0k
#290000
b100 #
b1100 #
b1110 #
0!
1z
1y
1x
0<
#294000
b101 %
1k
#295000
1!
1<
#300000
b10 $
0!
0w
0<
0?
#305000
1!
1<
1r
1D
1@
1.
1E
1A
1d
1F
1B
1e
0d
1f
0e
0f
12
02
#308000
b1 %
0k
1e
1f
12
#310000
b1100 #
0!
0z
0<
0@
1?
0A
0F
0B
0e
1d
0f
02
#315000
b11 $
1!
1w
1<
0D
0E
0d
0r
0.
#320000
b1101 #
b101 #
b111 #
0!
1{
1z
0x
0<
#322000
b11 %
b111 %
1l
1k
#325000
1!
1<
#329000
b110 %
0m
0U
1Q
0P
1M
0L
0I
1G
#330000
b1 $
b0 $
b1111 #
b1101 #
0!
0z
1x
0w
0v
0<
1P
0M
1H
1F
1B
1d
#335000
1!
1<
#336000
b10 %
b11 %
1m
0k
1U
0Q
1L
1I
0G
0F
0B
1e
0d
#340000
b1001 #
0!
0y
0<
#343000
b1 %
0l
1f
0e
0f
12
02
#345000
b1 $
1!
1w
1<
1>
#350000
b1 #
b101 %
b100 %
b101 #
0!
0m
1k
1y
0x
0<
0U
1Q
0L
0I
1G
1V
1`
15
13
#355000
1!
1<
1j
1u
1s
1h
1n
1W
1E
1A
1)
11
1/
1'
1*
1d
1e
1f
12
#360000
b100 #
b11 $
b110 #
b10 #
0!
1v
0{
1z
0y
0<
0>
1U
1S
0Q
1J
0H
0A
0P
1M
1L
0G
0E
0V
1[
0`
0d
05
14
03
0e
0f
02
#364000
b0 %
b1 %
1m
0k
1P
0M
1I
0[
1T
1K
0U
0L
04
1V
1`
15
13
#365000
1!
1<
1o
1q
0n
1+
1-
0*
#370000
b0 #
b100 #
0!
0z
1y
0<
#371000
b101 %
b100 %
0m
1k
0I
1G
0T
0K
1U
0V
05
#375000
b10 $
1!
0w
1<
1a
1X
1b
1R
1c
1_
1V
1d
0`
15
1e
03
1f
12
0q
0j
0u
0W
0S
0-
0)
01
0X
0R
0V
05
#378000
b110 %
b10 %
b11 %
1m
1l
0k
1L
1I
0G
0f
1`
1K
0c
02
13
1c
0L
0d
1d
#380000
b1100 #
0!
1x
0<
#385000
b1 %
b0 %
1!
0m
0l
1<
0I
1G
1F
1B
1f
0e
0K
1e
0f
0d
12
1f
02
12
#390000
b1110 #
b11 $
0!
1w
1z
0<
0a
0P
1M
0b
1[
0c
0_
14
1d
#392000
b100 %
b101 %
1m
1k
1P
0M
1L
1I
0G
0F
0B
0[
0`
1K
0d
0L
0e
04
03
1`
0f
13
02
#395000
1!
1<
#400000
b1100 #
0!
0z
0<
#405000
1!
1<
#406000
b111 %
b110 %
0m
1l
0I
1G
1F
1B
0`
0K
1d
03
#410000
b1101 #
b1001 #
b1 #
0!
1{
0y
0x
0<
0U
1Q
0J
1H
1L
0G
0F
0B
0d
#413000
b100 %
0l
1V
15
#415000
1!
1<
0o
1q
1j
1u
0s
0h
1W
0+
1-
1)
11
0/
0'
#420000
b1 $
b0 %
b1 %
b11 %
0!
1m
1l
0k
0v
0<
1U
0Q
1I
1e
0V
1X
1>
1T
1R
05
1Y
0U
1V
15
#425000
1!
1<
0q
1n
0X
0T
1E
1A
0-
1*
0Y
0R
1U
1f
1d
1F
1B
0V
0d
12
05
#427000
b111 %
b110 %
0m
1k
0U
1Q
0I
0F
0B
0e
0f
1d
02
#430000
b11 #
b10 #
b110 #
b1110 #
0!
0{
1z
1y
1x
0<
1U
1S
0Q
0H
0A
0P
1M
0L
1G
1F
1B
1f
0d
12
#434000
b100 %
b0 %
0l
0k
0f
1e
1`
1[
1f
02
13
14
12
#435000
b0 $
b10 $
1!
0w
1v
1<
1X
0?
0>
1R
0E
1d
1g
1o
1p
0j
0u
1i
1t
1s
1h
1r
1D
1@
0W
0S
1\
1N
1a
1J
1&
1+
1,
0)
01
1(
10
1/
1'
1.
1E
1A
0X
1]
1b
0d
0R
1^
1Z
1c
1_
0_
1d
#440000
b1100 #
b100 #
0!
0z
0x
0<
1P
0M
1?
0F
0B
0[
0^
0e
0d
1_
0f
04
02
#441000
b10 %
1l
1e
1[
1f
14
12
#445000
1!
1<
#448000
b11 %
1m
1L
1I
0G
1F
1B
1O
1K
0c
1d
1^
0P
1c
0L
0d
1d
#450000
b101 #
b11 $
0!
1w
1{
0<
0a
0\
0D
0N
0J
1H
0b
0]
0E
0_
0^
0Z
0f
0d
0`
0c
0[
02
1d
03
04
#455000
b1 %
1!
0l
1<
1f
1`
1[
12
13
14
0g
0o
0p
0i
0t
0s
0h
0r
0n
0@
0K
0O
0A
0&
0+
0,
0(
00
0/
0'
0.
0*
1L
1P
0F
0B
0`
0[
0e
0d
0f
03
04
02
#460000
b1 #
b0 #
0!
0{
0y
0<
0H
#465000
b1 $
1!
0v
1<
1>
#469000
b0 %
0m
0I
#470000
b100 #
b101 #
0!
1{
1y
0<
0U
1Q
1H
0L
1G
1V
1`
15
13
#475000
1!
1<
1j
1u
1s
1h
1n
1W
1E
1A
1)
11
1/
1'
1*
1d
#476000
b100 %
b110 %
1l
1k
0`
0V
03
05
#480000
b1101 #
b11 $
b1100 #
0!
1v
0{
1x
0<
0>
1U
1S
0Q
1J
0H
0A
1F
1B
0E
1f
0d
0f
1d
12
02
#483000
b10 %
b0 %
0l
0k
1e
1`
1f
13
12
#485000
1!
1<
1g
1o
0j
0u
1r
1@
0W
0S
1&
1+
0)
01
1.
1A
#490000
b1110 #
b1 %
b1111 #
0!
1m
1{
1z
0<
1L
1I
0G
0J
0A
0`
0F
0B
0e
0d
03
0f
02
#495000
1!
1<
0g
0o
0s
0h
0r
0n
0@
0&
0+
0/
0'
0.
0*
#497000
b101 %
b111 %
b110 %
0m
1l
1k
0U
1Q
0P
1M
0L
0I
1G
1F
1B
1d
#500000
b1011 #
b1010 #
0!
0{
0y
0<
1U
0Q
1L
0G
#504000
b10 %
b11 %
1m
0k
1P
0M
1I
0F
0B
1e
0d
#505000
1!
1<
#510000
b10 $
b10 #
b0 #
b100 #
0!
0z
1y
0x
0w
0<
#511000
b10 %
0m
0L
0I
1G
#515000
1!
1<
#518000
b110 %
b111 %
1m
1k
1L
1I
0G
0e
#520000
b1100 #
b1110 #
b1010 #
0!
1z
0y
1x
0<
0?
#525000
b101 %
b1 %
1!
0l
0k
1<
1r
1D
1@
1.
1E
1A
1d
1F
1B
1e
0d
1f
12
#530000
b1000 #
b1100 #
0!
0z
1y
0<
0@
1?
0A
0F
0B
0e
1d
0f
02
#535000
1!
1<
0r
0D
0.
0E
0d
#539000
b101 %
1k
#540000
b11 $
b1110 #
0!
1z
1w
0<
#545000
1!
1<
#546000
b111 %
1l
#550000
b1100 #
0!
0z
0<
#553000
b110 %
b10 %
b0 %
0m
0l
0k
0L
0I
1G
1F
1B
1`
1e
1d
1f
13
12
#555000
b1 $
1!
0v
1<
1>
1g
1o
1s
1h
1r
1n
1@
1b
1J
1E
1&
1+
1/
1'
1.
1*
1A
1c
1_
0d
1d
#560000
b1101 #
b101 #
b111 #
b1 %
0!
1m
1{
1z
0x
0<
1L
1I
0G
0J
0A
0`
0c
0F
0B
0e
03
0f
02
#565000
1!
1<
0g
0o
0s
0h
0r
0n
0@
0b
0E
0&
0+
0/
0'
0.
0*
0_
0d
#567000
b0 %
0m
0U
1Q
0P
1M
0L
0I
1G
1V
1[
1`
15
14
13
#570000
0!
0<
#575000
1!
1<
1o
1p
1q
1j
1u
1i
1t
1s
1h
1b
1]
1X
1W
1+
1,
1-
1)
11
1(
10
1/
1'
1c
1_
1^
1Z
1Y
1R
1d
0_
0Z
#580000
b110 #
0!
0{
0<
1U
1S
0Q
1N
1J
0V
0Y
1Z
05
#581000
b100 %
b101 %
1m
1k
1P
0M
1L
1I
0G
1e
0[
1V
1[
0^
0`
1T
1O
1K
1f
04
15
1_
1Y
0U
1^
0P
0L
14
03
12
0Z
0V
0_
0[
1[
1`
05
04
14
13
#585000
b0 $
b10 $
1!
0w
1v
1<
1a
1\
0?
0>
1g
0q
0j
0u
1r
1n
1D
1@
0W
0S
1&
0-
0)
01
1.
1*
1E
1A
0X
0T
0d
1F
1B
0Y
0R
1U
0e
1d
1Z
0f
1e
0[
1f
02
04
12
#588000
b111 %
b11 %
1l
0k
0`
1_
1[
1`
03
14
13
#590000
b111 #
0!
1{
0<
0N
0J
0A
1?
0O
0K
0F
0B
0^
1P
1L
0d
0c
1d
#595000
b10 %
b0 %
1!
0m
0l
1<
0U
1Q
0P
1M
0L
0I
1G
0e
0`
0[
1V
1[
1^
1`
1c
0f
03
04
0_
0d
15
14
13
02
#600000
b11 $
b1 $
0!
1w
0v
0<
0a
0\
0D
1>
#602000
b100 %
b101 %
1m
1k
1U
0Q
1P
0M
1L
1I
0G
0[
0V
1[
0^
0`
04
0c
1_
05
14
03
1d
1`
1e
13
1f
12
#605000
1!
1<
#609000
b100 %
0m
0U
1Q
0P
1M
0L
0I
1G
1V
0[
1^
0`
1c
0_
0d
15
04
03
1`
0e
0f
13
02
#610000
b1111 #
0!
1x
0<
1F
1B
1d
1e
1f
12
#615000
1!
1<
0p
1q
1j
1u
0i
0t
0]
1X
1W
0,
1-
1)
11
0(
00
0^
0Z
1Y
1R
1_
1[
1^
1Z
0V
0`
0_
0[
14
05
1`
03
04
13
#616000
b101 %
1m
1U
0Q
1P
0M
1L
1I
0G
0F
0B
1V
0Y
1[
0^
0`
0d
0Z
0c
1_
0e
15
14
03
0[
1d
1`
0f
1e
04
13
02
1f
12
#620000
b1110 #
b110 #
0!
0{
0x
0<
1S
1J
1A
1T
1K
1F
1B
1Y
0U
1c
0L
0d
1Z
0V
1d
0`
0e
1[
1e
0f
05
03
1f
14
02
12
#623000
b100 %
0m
0P
1M
0I
1G
0F
0B
0[
1^
0T
0K
0d
0_
0Y
1U
0e
04
1`
0^
0Z
1V
0f
1_
1[
13
15
02
0`
14
03
#625000
1!
1<
0g
0o
1p
1i
1t
0s
0h
0r
0n
0@
0b
1]
1N
0J
0E
0&
0+
1,
1(
10
0/
0'
0.
0*
0A
0c
0_
1^
1Z
1d
0d
1`
1c
1_
0[
1e
0e
1d
0`
1f
13
04
0f
1e
03
12
1f
02
12
#630000
b10 #
b110 %
b0 $
b10 $
b1010 #
b111 %
0!
0w
1v
1m
1l
0y
1x
0<
1\
0?
0>
1P
0M
1L
1I
0G
0f
0e
1`
0_
1[
0V
0[
0^
0`
1T
1O
0c
02
13
14
05
1Y
0U
1^
0P
0d
04
03
1V
1[
15
14
#635000
1!
1<
0t
1r
0\
0N
1D
1@
00
1.
0]
0O
1E
1A
0^
0Z
1P
1d
1F
1B
0[
1f
0d
04
12
#637000
b110 %
0m
0P
1M
0I
1^
0T
0Y
1U
0^
0V
05
#640000
b1011 #
0!
1{
0<
0U
0S
1Q
0A
1?
1V
1Y
1^
15
#644000
b10 %
b11 %
1m
0k
1U
0Q
1P
0M
1I
0F
0B
1e
0Y
0^
1d
#645000
b0 $
1!
0v
1<
1\
0D
1]
0E
1Z
0f
0d
1[
02
14
1g
0p
0i
1n
1D
0\
1&
0,
0(
1*
1E
0]
1f
1d
0Z
0[
12
04
#650000
b1001 #
b1101 #
b101 #
b100 #
0!
0{
0z
1y
0x
0<
1S
1A
0=
1T
1F
1B
1Y
0U
0d
#651000
b1 %
b101 %
b100 %
0m
0l
1k
0L
0I
1G
0F
0B
0e
1Z
0V
1`
0T
0f
1d
1[
05
0Y
1U
1e
13
02
14
0Z
1V
1f
0[
15
12
04
#655000
1!
1<
1o
0j
1s
1h
0W
0S
1a
1J
1+
0)
1/
1'
0X
1b
0R
1c
1_
0V
0d
0`
0e
05
03
0f
02
#658000
b0 %
0k
1`
13
#660000
b1 $
b11 $
b1100 #
0!
1x
1w
1v
0<
1F
1B
0a
0D
1=
1W
1e
1d
0b
0E
1f
0c
0_
0d
1d
12
#665000
b10 %
b110 %
1!
1l
1k
1<
0f
0e
0`
02
03
0q
0u
0W
0-
01
#670000
b1000 #
0!
0y
0<
1L
0G
#675000
b10 $
1!
0w
1<
1a
1D
1b
1E
1_
1f
0d
12
0g
0o
0s
0h
0r
0n
0D
0@
0a
0J
0&
0+
0/
0'
0.
0*
0E
0A
0b
0f
1d
0_
02
#679000
b111 %
b11 %
1m
0k
1I
0F
0B
1e
0d
#680000
b1100 #
0!
1y
0<
#685000
1!
1<
#690000
b1101 #
b0 $
b101 #
b1 #
0!
0v
1{
0y
0x
0<
1H
#693000
b111 %
1k
0e
#695000
1!
1<
#700000
b101 %
b1001 #
0!
1x
0l
0<
#705000
b10 $
1!
1v
1<
#707000
b1 %
b11 %
1l
0k
1e
#710000
b1011 #
b1010 #
b10 #
0!
0{
1z
0x
0<
0H
0?
#714000
b10 %
b110 %
b100 %
0m
0l
1k
0P
1M
0I
1f
0e
1[
0f
12
14
02
#715000
1!
1<
1p
1i
1r
1D
1@
1,
1(
1.
1E
1A
1d
1e
1f
12
#720000
b11 $
b1 $
b1010 #
0!
1x
1w
0v
0<
1F
1B
0D
1?
1>
0d
0E
1]
0e
1d
1^
1Z
0f
1e
1_
0[
1f
1`
02
04
12
13
#725000
1!
1<
1g
1o
0p
0i
1s
1h
1n
1b
0]
1J
1E
1&
1+
0,
0(
1/
1'
1*
1c
0_
0^
0Z
0d
1d
0`
0c
1_
1[
0e
1e
0d
1`
0f
03
14
1f
0e
13
02
0f
12
02
#728000
b101 %
b1 %
1m
0k
1P
0M
1I
1e
0`
0[
1K
1f
03
1c
0L
04
12
1d
1`
13
#730000
b1000 #
b0 #
0!
0z
0x
0<
#735000
b0 $
1!
0w
1<
1a
1D
0>
0=
#740000
b10 #
b1010 #
0!
1z
1x
0<
1=
#745000
1!
1<
#750000
b1110 #
b10 $
b11 $
b1100 #
0!
1w
1v
0z
1y
0<
0a
0D
0b
0E
0c
0_
0d
1d
#755000
1!
1<
#760000
b1101 #
b101 #
b111 #
0!
1{
1z
0x
0<
0J
0A
0K
0F
0B
1L
0e
0d
0`
0f
03
02
#763000
b11 %
b10 %
b110 %
0m
1l
1k
0U
1Q
0P
1M
0L
0I
1G
#765000
b10 $
1!
0w
1<
1a
1D
1b
1E
1c
1_
1d
0d
1`
13
0g
0o
0s
0h
0r
0n
0D
0@
0a
0&
0+
0/
0'
0.
0*
0E
0b
1d
0c
0_
0d
0`
03
#770000
b110 #
b111 %
b11 %
0!
1m
0k
0{
0<
1U
0Q
1P
0M
1L
1I
0G
1e
0?
#775000
1!
1<
1r
1D
1@
1.
1E
1A
1f
1d
1F
1B
0d
12
#780000
b0 $
b1110 #
0!
1x
0v
0<
0D
1?
0E
0f
1d
02
#785000
1!
1<
0r
0@
0.
0A
0F
0B
0d
#790000
b1100 #
b1101 #
b101 #
0!
1{
0z
0x
0<
1H
#791000
b111 %
1k
0e
#795000
1!
1<
#798000
b101 %
b100 %
0m
0l
0U
1Q
0L
0I
1G
1V
1`
15
13
#800000
b111 #
b110 #
0!
0{
1z
0<
1U
0Q
0H
0P
1M
0V
1[
05
14
#805000
b0 %
1!
0k
1<
1o
1p
1i
1t
1s
1h
1\
1N
1a
1J
1+
1,
1(
10
1/
1'
1]
1b
1^
1Z
1c
1_
0_
1d
#810000
b10 #
b1 $
b1010 #
b1000 #
b1001 #
0!
1w
1{
0z
0y
1x
0<
0a
0\
1>
0U
1Q
0N
0J
1H
1P
0M
1L
0G
1F
1B
1V
0[
0^
0`
1e
0d
0c
1_
1f
15
04
03
1d
12
#815000
1!
1<
1g
0o
1q
1j
1u
0i
0t
0s
0h
1r
1n
1@
0b
1X
1W
1E
1A
1&
0+
1-
1)
11
0(
00
0/
0'
1.
1*
0_
1Y
1R
0d
1^
0Z
1_
#819000
b10 %
1l
1`
0_
1Z
0`
1[
13
03
14
#820000
0!
0<
#825000
b0 $
1!
0w
1<
1D
0>
0]
0^
0Z
0[
04
1o
0p
1i
1t
1\
1+
0,
1(
10
1]
1^
1Z
1[
14
#830000
b1101 #
b101 #
b111 #
0!
1z
1y
0x
0<
0P
1M
0H
0A
0L
1G
0F
0B
1c
1d
0d
#833000
b11 %
1m
1U
0Q
1P
0M
1L
1I
0G
0Y
0c
0^
1d
#835000
1!
1<
0o
1p
0+
1,
#840000
b111 %
b101 %
b1111 #
0!
1x
0l
1k
0<
#845000
1!
1<
#847000
b100 %
b0 %
b10 %
0m
1l
0k
0U
1Q
0P
1M
0L
0I
1G
1F
1B
1Y
1^
0d
1c
1d
#850000
b1011 #
b1001 #
b1 #
0!
0z
0y
0x
0<
1P
0M
1H
1A
1L
0G
0F
0B
0c
0d
1d
