simulation/qsim/ASSIGNMENT.msim.vcd
$comment
	File created using the following command:
		vcd file ASSIGNMENT.msim.vcd -direction
$end
$date
	Sat Oct 12 14:58:42 2019
$end
$version
	ModelSim Version 10.5b
$end
$timescale
	1ps
$end

$scope module ASSIGNMENT_vlg_vec_tst $end
$var reg 1 ! CLK $end
$var reg 4 " INPUT1 [3:0] $end
$var reg 2 # INPUT2 [1:0] $end
$var reg 3 $ S [2:0] $end
$var wire 1 % OA [3] $end
$var wire 1 & OA [2] $end
$var wire 1 ' OA [1] $end
$var wire 1 ( OA [0] $end
$var wire 1 ) OB [3] $end
$var wire 1 * OB [2] $end
$var wire 1 + OB [1] $end
$var wire 1 , OB [0] $end
$var wire 1 - OC [3] $end
$var wire 1 . OC [2] $end
$var wire 1 / OC [1] $end
$var wire 1 0 OC [0] $end
$var wire 1 1 OUTPUT [3] $end
$var wire 1 2 OUTPUT [2] $end
$var wire 1 3 OUTPUT [1] $end
$var wire 1 4 OUTPUT [0] $end

$scope module i1 $end
$var wire 1 5 gnd $end
$var wire 1 6 vcc $end
$var wire 1 7 unknown $end
$var tri1 1 8 devclrn $end
$var tri1 1 9 devpor $end
$var tri1 1 : devoe $end
$var wire 1 ; CLK~combout $end
$var wire 1 < inst10|34~0_combout $end
$var wire 1 = inst10|35~combout $end
$var wire 1 > inst|inst3|6~0 $end
$var wire 1 ? inst|inst3|6~1 $end
$var wire 1 @ inst|inst3|6~2_combout $end
$var wire 1 A inst7|inst3~regout $end
$var wire 1 B inst1|inst3|6~0_combout $end
$var wire 1 C inst|inst2|2~combout $end
$var wire 1 D inst10|33~combout $end
$var wire 1 E inst5|inst~regout $end
$var wire 1 F inst7|inst~regout $end
$var wire 1 G inst|inst|6~0 $end
$var wire 1 H inst|inst|6~1 $end
$var wire 1 I ALU4B|inst2|inst|6~0_combout $end
$var wire 1 J inst6|inst~regout $end
$var wire 1 K inst1|inst|6~0 $end
$var wire 1 L inst1|inst|6~1_combout $end
$var wire 1 M ALU4B|inst|inst|6~4_combout $end
$var wire 1 N inst5|inst1~regout $end
$var wire 1 O inst7|inst1~regout $end
$var wire 1 P inst|inst1|3~0 $end
$var wire 1 Q ALU4B|inst|inst|6~6_combout $end
$var wire 1 R ALU4B|inst|inst|6~5 $end
$var wire 1 S inst6|inst1~regout $end
$var wire 1 T inst1|inst1|6~0 $end
$var wire 1 U inst1|inst1|6~1_combout $end
$var wire 1 V ALU4B|inst|inst10|inst4~0_combout $end
$var wire 1 W ALU4B|inst|inst10|inst4~1_combout $end
$var wire 1 X ALU4B|inst1|inst|6~4_combout $end
$var wire 1 Y inst6|inst2~regout $end
$var wire 1 Z inst5|inst2~regout $end
$var wire 1 [ inst1|inst2|6~0 $end
$var wire 1 \ inst1|inst2|6~1_combout $end
$var wire 1 ] ALU4B|inst1|inst|6~2_combout $end
$var wire 1 ^ ALU4B|inst1|inst|6~3 $end
$var wire 1 _ inst7|inst2~regout $end
$var wire 1 ` inst|inst2|3~0 $end
$var wire 1 a inst|inst2|3~1_combout $end
$var wire 1 b ALU4B|inst1|inst10|inst4~0_combout $end
$var wire 1 c ALU4B|inst3|inst10|inst1~0_combout $end
$var wire 1 d ALU4B|inst3|inst|6~0_combout $end
$var wire 1 e ALU4B|inst3|inst|6~2 $end
$var wire 1 f inst6|inst3~regout $end
$var wire 1 g ALU4B|inst3|inst|6~1_combout $end
$var wire 1 h inst5|inst3~regout $end
$var wire 1 i INPUT1~combout [3] $end
$var wire 1 j INPUT1~combout [2] $end
$var wire 1 k INPUT1~combout [1] $end
$var wire 1 l INPUT1~combout [0] $end
$var wire 1 m S~combout [2] $end
$var wire 1 n S~combout [1] $end
$var wire 1 o S~combout [0] $end
$var wire 1 p INPUT2~combout [1] $end
$var wire 1 q INPUT2~combout [0] $end
$upscope $end
$upscope $end
$enddefinitions $end
#0
$dumpvars
0!
b0 "
b0 #
b0 $
0(
0'
0&
0%
0,
0+
0*
0)
00
0/
0.
0-
04
03
02
01
05
16
x7
18
19
1:
0;
0<
0=
0>
0?
0@
0A
0B
0C
1D
0E
0F
0G
0H
0I
0J
0K
0L
0M
0N
0O
0P
1Q
0R
0S
0T
0U
0V
0W
1X
0Y
0Z
0[
0\
0]
0^
0_
0`
0a
0b
0c
0d
0e
0f
0g
0h
0l
0k
0j
0i
0o
0n
0m
0q
0p
$end
#100000
b100 "
b101 "
1l
1j
1H
0X
1C
1I
1^
14
12
#120000
1!
1;
1Z
1E
1[
1K
1&
1(
1\
1L
1b
1]
1M
1c
#170000
b1 "
b0 "
0l
0j
1`
0H
1G
1X
0C
0M
0I
0^
0b
0c
04
02
#240000
0!
0;
#340000
b1 #
b100 "
1j
1q
0X
1C
0\
0L
0D
1<
1^
0]
12
#360000
1!
1;
1Y
1\
1*
1b
1]
1c
#390000
b0 #
b0 "
0j
0q
1X
0C
1L
1D
0<
0^
0b
0c
02
#480000
0!
0;
#580000
b100 $
b101 $
b1 #
1q
1o
1m
0L
0D
1<
1a
1H
1^
1I
1b
0X
12
14
1c
0^
1d
02
1e
11
#600000
1!
1;
0Y
1J
1f
0\
1L
0c
0*
1,
1)
0b
0]
1M
0I
0d
1c
1^
1R
0e
04
1d
12
13
01
1e
11
#630000
b1 $
b0 $
b0 #
0q
0o
0m
1\
1D
0<
0a
0H
0d
0R
1I
1]
0c
1X
0M
0I
0e
03
14
0^
04
01
02
#720000
0!
0;
#820000
b10 #
b1 "
b1 $
1o
1l
1p
1a
0`
0G
1?
0[
0K
0D
1=
1b
0X
0a
1H
1@
0\
0L
1c
1^
0b
1X
1I
1d
0]
0c
0^
1e
12
14
02
11
#840000
1!
1;
1F
1A
1B
1K
10
1-
1c
1L
1M
#860000
b0 #
b0 "
b0 $
0o
0l
0p
0H
0@
1`
1G
0?
1[
1D
0B
0=
0M
0I
0d
1\
0c
0e
1]
04
01
#960000
0!
0;
#1070000
b10 "
b10 $
b110 $
b111 $
1o
1n
1m
1k
1H
0`
1>
1I
1?
1@
14
#1080000
1!
1;
0Z
0[
0&
0\
0]
#1090000
b0 "
b101 $
b1 $
b0 $
0o
0n
0m
0k
0H
0@
1d
1M
0>
0M
0I
1e
0d
0?
0e
04
11
01
#1200000
0!
0;
#1310000
b10 #
b10 "
b100 $
1m
1k
1p
1I
1V
0Q
1>
0D
1B
1=
1R
1?
1c
14
1d
13
1e
11
#1320000
1!
1;
1O
1T
1/
1U
1W
1M
1]
0R
1^
03
12
#1330000
b0 #
b0 "
b0 $
0m
0k
0p
0d
0^
1R
0I
0V
1Q
0>
0T
1D
0B
0=
0e
0W
0R
0?
0U
0c
02
13
04
0]
0M
01
03
#1440000
0!
0;
#1550000
b10 $
b10 #
b110 $
1p
1n
1m
1T
0D
1B
1=
1U
1g
1c
1M
#1560000
1!
1;
0O
0F
0A
0B
0T
0K
0/
00
0-
0g
0c
0U
0L
0M
#1570000
b100 $
b0 #
b0 $
0p
0n
0m
1K
1D
0=
1L
#1680000
0!
0;
