simulation/qsim/ASSIGNMENT.msim.vcd
$comment
	File created using the following command:
		vcd file ASSIGNMENT.msim.vcd -direction
$end
$date
	Fri Oct 04 13:27:00 2019
$end
$version
	ModelSim Version 10.5b
$end
$timescale
	1ps
$end

$scope module ASSIGNMENT_vlg_vec_tst $end
$var reg 1 ! CLK $end
$var reg 1 " GND $end
$var reg 4 # INPUT1 [3:0] $end
$var reg 2 $ INPUT2 [1:0] $end
$var reg 3 % S [2:0] $end
$var reg 1 & VCC $end
$var wire 1 ' OA [3] $end
$var wire 1 ( OA [2] $end
$var wire 1 ) OA [1] $end
$var wire 1 * OA [0] $end
$var wire 1 + OB [3] $end
$var wire 1 , OB [2] $end
$var wire 1 - OB [1] $end
$var wire 1 . OB [0] $end
$var wire 1 / OC [3] $end
$var wire 1 0 OC [2] $end
$var wire 1 1 OC [1] $end
$var wire 1 2 OC [0] $end
$var wire 1 3 OUTPUT [3] $end
$var wire 1 4 OUTPUT [2] $end
$var wire 1 5 OUTPUT [1] $end
$var wire 1 6 OUTPUT [0] $end

$scope module i1 $end
$var wire 1 7 gnd $end
$var wire 1 8 vcc $end
$var wire 1 9 unknown $end
$var tri1 1 : devclrn $end
$var tri1 1 ; devpor $end
$var tri1 1 < devoe $end
$var wire 1 = CLK~combout $end
$var wire 1 > inst|inst3|6~1_combout $end
$var wire 1 ? GND~combout $end
$var wire 1 @ inst|inst3|6~0_combout $end
$var wire 1 A inst|inst3|6~2_combout $end
$var wire 1 B ALU4B|inst3|inst|6~3_combout $end
$var wire 1 C inst1|inst2|6~0_combout $end
$var wire 1 D ALU4B|inst3|inst|6~1_combout $end
$var wire 1 E VCC~combout $end
$var wire 1 F inst|inst2|2~combout $end
$var wire 1 G ALU4B|inst1|inst|6~1_combout $end
$var wire 1 H inst1|inst2|6~1_combout $end
$var wire 1 I inst|inst1|2~combout $end
$var wire 1 J ALU4B|inst|inst|6~1_combout $end
$var wire 1 K inst|inst|2~combout $end
$var wire 1 L ALU4B|inst2|inst|6~0_combout $end
$var wire 1 M ALU4B|inst2|inst|6~1_combout $end
$var wire 1 N ALU4B|inst2|inst|6~2_combout $end
$var wire 1 O inst1|inst|6~0_combout $end
$var wire 1 P inst|inst|4~0_combout $end
$var wire 1 Q ALU4B|inst2|inst10|inst4~0_combout $end
$var wire 1 R ALU4B|inst|inst|6~0_combout $end
$var wire 1 S ALU4B|inst|inst|6~2_combout $end
$var wire 1 T inst1|inst1|6~0_combout $end
$var wire 1 U inst|inst1|4~0_combout $end
$var wire 1 V ALU4B|inst|inst10|inst4~0_combout $end
$var wire 1 W ALU4B|inst1|inst|6~0_combout $end
$var wire 1 X ALU4B|inst1|inst|6~2_combout $end
$var wire 1 Y inst|inst2|4~0_combout $end
$var wire 1 Z ALU4B|inst1|inst10|inst4~0_combout $end
$var wire 1 [ ALU4B|inst3|inst10|inst1~combout $end
$var wire 1 \ ALU4B|inst3|inst|6~0_combout $end
$var wire 1 ] ALU4B|inst3|inst|6~2_combout $end
$var wire 1 ^ C|dffs [3] $end
$var wire 1 _ C|dffs [2] $end
$var wire 1 ` C|dffs [1] $end
$var wire 1 a C|dffs [0] $end
$var wire 1 b INPUT1~combout [3] $end
$var wire 1 c INPUT1~combout [2] $end
$var wire 1 d INPUT1~combout [1] $end
$var wire 1 e INPUT1~combout [0] $end
$var wire 1 f INPUT2~combout [1] $end
$var wire 1 g INPUT2~combout [0] $end
$var wire 1 h S~combout [2] $end
$var wire 1 i S~combout [1] $end
$var wire 1 j S~combout [0] $end
$upscope $end
$upscope $end
$enddefinitions $end
#0
$dumpvars
0!
0"
b0 #
b0 $
b0 %
1&
0*
0)
0(
0'
0.
0-
0,
0+
02
01
00
0/
06
05
04
03
07
18
x9
1:
1;
1<
0=
0>
0?
0@
0A
1B
1C
0D
1E
0F
1G
0H
0I
1J
0K
0L
1M
0N
0O
0P
0Q
0R
0S
0T
0U
0V
0W
0X
0Y
0Z
0[
0\
0]
0a
0`
0_
0^
0e
0d
0c
0b
zg
0f
0j
0i
0h
$end
#10000
1!
1=
#15000
b1 #
1e
1K
0M
1N
16
#20000
0!
0=
#23000
b1 $
#30000
b11 #
b10 #
1!
0e
1d
1=
0K
1I
1M
0J
0N
1S
06
15
1a
1O
12
1.
1*
1L
#31000
b1 %
1j
0I
1>
1J
1P
0M
0S
1Q
1N
1R
05
16
#40000
0!
0=
#45000
b11 #
1e
0>
0P
1M
0Q
0N
0R
06
#46000
b11 $
b10 $
1f
0O
0C
0L
#50000
1!
1=
0a
02
0.
0*
#60000
b111 #
b101 #
b100 #
0!
0e
0d
1c
0=
1C
1>
#62000
b11 %
b10 %
0j
1i
1F
0>
0G
#69000
b11 $
#70000
1!
1=
#75000
b101 #
1e
1K
0C
0M
#80000
0!
0=
#90000
b111 #
b110 #
1!
0e
1d
1=
0K
1C
1I
1M
0J
#92000
b1 $
b0 $
0f
#93000
b11 %
1j
0I
0F
1>
1J
1G
#100000
0!
0=
#105000
b111 #
1e
0>
#110000
1!
1=
#115000
b1 $
#120000
b1111 #
b1011 #
b1001 #
b1000 #
0!
0e
0d
0c
1b
0=
1>
#124000
b111 %
b101 %
b100 %
0j
0i
1h
1@
0>
0B
1A
1[
1B
1\
1]
13
#130000
1!
1=
1^
0[
1/
1+
1'
0\
0]
03
#135000
b1001 #
1e
1K
0M
1N
16
#138000
b11 $
b10 $
1f
0C
1[
1\
1]
13
#140000
0!
0=
#150000
b1011 #
b1010 #
1!
0e
1d
1=
0K
1C
1I
1M
0[
0J
0N
0\
1S
0]
06
15
03
1a
1O
12
1.
1*
1L
1N
16
#155000
b101 %
1j
0I
0@
1>
1J
1P
0M
0S
1Q
0N
1R
05
06
1S
15
#160000
0!
0=
#161000
b11 $
#165000
b1011 #
1e
0O
0C
0>
0Q
0L
1[
0P
1M
0A
0R
1\
0[
0B
0S
1]
0\
0]
05
13
03
#170000
1!
1=
0^
0a
0/
0+
0'
02
0.
0*
#180000
b1111 #
b1101 #
b1100 #
0!
0e
0d
1c
0=
1C
1>
#184000
b1 $
b0 $
0f
#186000
b111 %
b110 %
0j
1i
1F
1@
0>
0G
1A
1[
1B
#190000
1!
1=
#195000
b1101 #
1e
1K
0M
#200000
0!
0=
#207000
b1 $
#210000
b1111 #
b1110 #
1!
0e
1d
1=
0K
1I
1M
0J
#217000
b111 %
1j
0I
0F
0@
1>
1J
1G
0A
0[
0B
#220000
0!
0=
#225000
b1111 #
1e
0>
#230000
b11 $
b10 $
1!
1f
1=
0C
#240000
b111 #
b11 #
b1 #
b0 #
0!
0e
0d
0c
0b
0=
1C
1>
#248000
b11 %
b1 %
b0 %
0j
0i
0h
0>
1B
#250000
1!
1=
#253000
b11 $
#255000
b1 #
1e
1K
0C
0M
1N
16
#260000
0!
0=
#270000
b11 #
b10 #
1!
0e
1d
1=
0K
1C
1I
1M
0J
0N
1S
06
15
1a
1O
12
1.
1*
1L
#276000
b1 $
b0 $
0f
#279000
b1 %
1j
0I
1>
1J
1P
0M
0S
1Q
1N
1R
05
16
#280000
0!
0=
#285000
b11 #
1e
0>
0P
1M
0Q
0N
0R
06
#290000
1!
1=
0a
0O
02
0.
0*
0L
#299000
b1 $
#300000
b111 #
b101 #
b100 #
0!
0e
0d
1c
0=
1>
#310000
b11 %
b10 %
1!
0j
1i
1=
1F
0>
0G
#315000
b101 #
1e
1K
0M
#320000
0!
0=
#322000
b11 $
b10 $
1f
0C
#330000
b111 #
b110 #
1!
0e
1d
1=
0K
1C
1I
1M
0J
#340000
0!
0=
#341000
b11 %
1j
0I
0F
1>
1J
1G
#345000
b11 $
b111 #
1e
0C
0>
#350000
1!
1=
#360000
b1111 #
b1011 #
b1001 #
b1000 #
0!
0e
0d
0c
1b
0=
1C
1>
#368000
b1 $
b0 $
0f
#370000
1!
1=
#372000
b111 %
b101 %
b100 %
0j
0i
1h
1@
0>
0B
1A
1[
1B
1\
1]
13
#375000
b1001 #
1e
1K
0M
1N
16
#380000
0!
0=
#390000
b1011 #
b1010 #
1!
0e
1d
1=
0K
1I
1M
0J
0N
1S
06
15
1^
1a
0[
1O
1/
1+
1'
12
1.
1*
0\
1L
0]
1N
03
16
#391000
b1 $
#400000
0!
0=
#403000
b101 %
1j
0I
0@
1>
1J
1P
0M
0S
1Q
0N
1R
05
06
1S
15
#405000
b1011 #
1e
0>
0P
1M
0A
0Q
1N
1[
0B
0R
1\
16
0S
1]
05
13
#410000
1!
1=
#414000
b11 $
b10 $
1f
0O
0C
0L
0[
0N
0\
0]
06
03
#420000
b1111 #
b1101 #
b1100 #
0!
0e
0d
1c
0=
1O
1C
1>
1L
1[
1P
0M
1A
1\
1Q
0[
1B
1]
1R
0\
1S
0]
13
15
03
#430000
1!
1=
0^
1`
0a
1[
0A
1U
1T
0J
0P
0O
1M
0/
0+
0'
11
1-
1)
02
0.
0*
1\
0[
0B
1V
0R
0S
0Q
0L
1N
1]
0\
1W
1S
1R
0N
05
16
0]
1X
0S
13
15
06
03
14
05
#434000
b111 %
b110 %
0j
1i
1F
1@
0>
0X
0W
1S
1Z
0G
1A
0U
1J
04
15
1B
0V
0S
0Z
05
1[
#435000
b1101 #
1e
0T
1K
0C
0R
0M
#437000
b11 $
#440000
0!
0=
#450000
b1111 #
b1110 #
1!
0e
1d
1=
1T
0K
1C
1I
1V
1R
1M
0J
1Z
1S
0[
15
0`
0T
01
0-
0)
0V
0R
0Z
0S
1[
05
#460000
b1 $
b0 $
0!
0f
0=
#465000
b111 %
b1111 #
1e
1j
0I
0F
0@
1J
1G
0A
0[
0B
#470000
1!
1=
#480000
b111 #
b11 #
b1 #
b0 #
0!
0e
0d
0c
0b
0=
1>
#483000
b1 $
#490000
1!
1=
#495000
b1 #
1e
#496000
b11 %
b1 %
b0 %
0j
0i
0h
1K
0>
1B
0M
1N
16
#500000
0!
0=
#506000
b11 $
b10 $
1f
0C
#510000
b11 #
b10 #
1!
0e
1d
1=
0K
1C
1I
1M
0J
0N
1S
06
15
1a
1O
12
1.
1*
1L
#520000
0!
0=
#525000
b11 #
1e
0O
1K
0C
0L
0M
1N
16
#527000
b1 %
1j
0K
0I
1M
1J
0N
0S
06
05
#529000
b11 $
#530000
1!
1=
0a
02
0.
0*
#540000
b111 #
b101 #
b100 #
0!
0e
0d
1c
0=
1C
1>
#550000
1!
1=
#552000
b1 $
b0 $
0f
#555000
b101 #
1e
#558000
b11 %
b10 %
0j
1i
1K
1F
0>
0M
0G
#560000
0!
0=
#570000
b111 #
b110 #
1!
0e
1d
1=
0K
1I
1M
0J
#575000
b1 $
#580000
0!
0=
#585000
b111 #
1e
1K
0M
#589000
b11 %
1j
0K
0I
0F
1M
1J
1G
#590000
1!
1=
#598000
b11 $
b10 $
1f
0C
#600000
b1111 #
b1011 #
b1001 #
b1000 #
0!
0e
0d
0c
1b
0=
1C
1>
#610000
1!
1=
#615000
b1001 #
1e
0C
#620000
b111 %
b101 %
b100 %
0!
0j
0i
1h
0=
1K
1@
0>
0B
0M
1A
1N
1[
1B
1\
16
1]
13
#621000
b11 $
#630000
b1011 #
b1010 #
1!
0e
1d
1=
0K
1C
1I
1M
0J
0N
1S
06
15
1^
1a
0[
1O
1/
1+
1'
12
1.
1*
0\
1L
0]
1N
03
16
#640000
0!
0=
#644000
b1 $
b0 $
0f
#645000
b1011 #
1e
1K
1Q
0M
1V
1R
0N
1W
0S
06
1X
05
14
#650000
1!
1=
0^
1_
0a
1[
1H
0O
0/
0+
0'
10
1,
1(
02
0.
0*
1\
1Z
0W
0Q
0L
1]
0[
0X
0V
0R
1N
0\
0Z
1W
1S
13
04
16
0]
1[
1X
15
1\
03
14
1]
13
#651000
b101 %
1j
0K
0I
0@
1M
1J
0A
0N
0S
0[
0B
0\
06
05
0]
03
#660000
b1111 #
b1101 #
b1100 #
0!
0e
0d
1c
0=
1>
1Y
0G
1Z
0X
1[
04
1\
1]
13
#667000
b1 $
#670000
1!
1=
1^
0_
0[
1A
0Y
0H
1G
1/
1+
1'
00
0,
0(
0\
1[
1B
0Z
0W
1X
0]
1\
0[
0X
14
1]
0\
03
04
0]
13
03
#675000
b1101 #
1e
#680000
0!
0=
#682000
b111 %
b110 %
0j
1i
1K
1F
1@
0>
1D
0M
0G
1]
13
#690000
b11 $
b1111 #
b10 $
b1110 #
1!
0e
1d
1f
1=
0K
1I
1M
0J
#700000
0!
0=
#705000
b1111 #
1e
1K
0C
0M
1[
0D
0]
03
#710000
1!
1=
0^
0/
0+
0'
#713000
b111 %
b11 $
1j
0K
0I
0F
0@
1M
1J
1G
0A
0[
0B
#720000
b111 #
b11 #
b1 #
b0 #
0!
0e
0d
0c
0b
0=
1C
1>
#730000
1!
1=
#735000
b1 #
1e
0C
#736000
b1 $
b0 $
0f
1C
#740000
0!
0=
#744000
b11 %
b1 %
b0 %
0j
0i
0h
1K
0>
1B
0M
1N
16
#750000
b11 #
b10 #
1!
0e
1d
1=
0K
1I
1M
0J
0N
1S
06
15
1a
1O
12
1.
1*
1L
#759000
b1 $
#760000
0!
0=
#765000
b11 #
1e
1K
1Q
0M
1V
1R
1N
1W
16
#770000
1!
1=
1`
1T
11
1-
1)
0R
#775000
b1 %
1j
0K
0I
0Q
1M
1J
0V
1R
0N
0S
0W
06
05
#780000
b111 #
b101 #
b100 #
0!
0e
0d
1c
0=
1>
1U
1P
0M
0J
1V
1Q
1N
1S
1W
0R
16
15
#782000
b11 $
b10 $
1f
#790000
1!
1=
#795000
b101 #
1e
0T
0O
0C
1R
0Q
0L
0V
0R
0W
#800000
0!
0=
#805000
b11 $
#806000
b11 %
b10 %
0j
1i
1K
1F
0>
0S
0N
0G
0U
0P
1J
05
06
#810000
b111 #
b110 #
1!
0e
1d
1=
1T
1O
0K
1C
1I
1V
1R
1L
1M
0J
1Z
1S
1N
1[
15
16
0`
0a
0T
0O
01
0-
0)
02
0.
0*
0V
0R
0L
0Z
0S
0N
0[
05
06
#820000
0!
0=
#825000
b111 #
1e
1K
0C
0M
#828000
b1 $
b0 $
0f
1C
#830000
1!
1=
#837000
b11 %
1j
0K
0I
0F
1M
1J
1G
#840000
b1111 #
b1011 #
b1001 #
b1000 #
0!
0e
0d
0c
1b
0=
1>
#850000
1!
1=
#851000
b1 $
#855000
b1001 #
1e
#860000
0!
0=
#868000
b111 %
b101 %
b100 %
0j
0i
1h
1K
1@
0>
0B
0M
1A
1N
1[
1B
1\
16
1]
13
#870000
b1011 #
b1010 #
1!
0e
1d
1=
0K
1I
1M
0J
0N
1S
06
15
1^
1a
0[
1O
1/
1+
1'
12
1.
1*
0\
1L
0]
1N
03
16
#874000
b11 $
b10 $
1f
#880000
0!
0=
#885000
b1011 #
1e
0O
1K
0C
0L
0M
1[
1\
1]
13
#890000
1!
1=
1`
11
1-
1)
#897000
b11 $
#899000
b101 %
1j
0K
0I
0@
1M
1J
0A
0N
0S
0[
0B
0\
06
05
0]
03
#900000
b1111 #
b1101 #
b1100 #
0!
0e
0d
1c
0=
1T
1O
1C
1>
1R
1L
1[
1U
1P
0M
0J
1A
1\
1V
1Q
0[
1B
1]
1W
0R
0\
1X
1S
0]
13
14
15
03
#910000
1!
1=
0^
1_
0a
1[
0A
1Y
1H
0G
0P
0O
1M
0/
0+
0'
10
1,
1(
02
0.
0*
1\
0[
0B
1Z
0W
0X
0Q
0L
1N
1]
0\
1[
1X
1R
0N
04
16
0]
1\
0S
13
14
06
1]
03
05
13
#915000
b1101 #
1e
0T
0H
0C
0V
0R
1W
0Z
0W
1S
0X
0[
1X
15
04
0\
14
0]
03
#920000
b1 $
b0 $
0!
0f
0=
1T
1H
1C
1V
1R
1Z
1W
0W
0S
1[
0X
1X
1\
05
04
1]
14
13
#930000
b111 %
b110 %
b1111 #
b1110 #
1!
0e
1d
0j
1i
1=
0>
1I
1F
1@
0\
0X
1W
1S
0Y
0U
1A
0]
1X
04
15
0[
1B
03
14
1^
0`
1[
1D
0T
1/
1+
1'
01
0-
0)
1]
0V
0R
0S
13
05
#940000
0!
0=
#943000
b1 $
#945000
b1111 #
1e
1K
0M
#950000
1!
1=
#960000
b111 #
b11 #
b1 #
b0 #
0!
0e
0d
0c
0b
0=
0K
0I
0F
0@
1M
1J
0Z
1G
0A
0X
0]
0B
04
03
#961000
b111 %
1j
1>
1Y
0G
1A
1Z
1X
1]
0[
1B
1[
14
13
#966000
b11 $
b10 $
1f
#970000
1!
1=
#975000
b1 #
1e
0H
0C
0Z
0W
0[
0D
1[
0X
0]
04
03
#980000
0!
0=
#989000
b11 $
#990000
b11 #
b10 #
1!
0e
1d
1=
1H
1C
1Z
1W
0[
1D
1[
1X
1]
14
13
0^
0_
0[
0D
0A
0Y
0H
1G
0/
0+
0'
00
0,
0(
0]
1[
0B
0Z
0W
0X
0[
03
04
#992000
b11 %
b1 %
b0 %
0j
0i
0h
1I
0>
1B
0J
1S
15
